 26 57869 2021-06-23T11:47:54.122Z;edebrye;mentioned in commit 422ed70dfd04e758290c4ef442cef0f7a1017134 26 57867 2021-06-23T11:47:53.617Z;edebrye;closed via merge request !25 26 57845 2021-06-23T09:07:15.387Z;edebrye;mentioned in merge request !25 26 57844 2021-06-23T09:07:15.239Z;edebrye;created merge request !25 to address this issue
 35 68770 2021-11-18T15:42:08.828Z;edebrye;mentioned in commit 0cd1d2e0dac5a10f892a0cbec1e1e784ae88b622 35 68767 2021-11-18T15:37:32.826Z;edebrye;mentioned in merge request !33 35 68766 2021-11-18T15:37:32.415Z;edebrye;created merge request !33 to address this issue
 44 98241 2023-07-25T20:08:42.654Z;vthevenon;mentioned in commit 1f4633bf002fcebf32feccac2dd3beedc7411055 44 98240 2023-07-25T20:08:28.375Z;vthevenon;mentioned in merge request !49 44 98235 2023-07-25T18:53:16.912Z;vthevenon;mentioned in commit 3df548d48ef11a533d4e790d27e91be57e87779e 44 98233 2023-07-25T18:52:43.208Z;vthevenon;mentioned in merge request !48 44 98230 2023-07-25T18:49:00.502Z;vthevenon;mentioned in commit dc1d7fc950e5f470aafdb9c64a25a72960fed3f3 44 98229 2023-07-25T18:48:49.813Z;vthevenon;mentioned in merge request !47 44 98134 2023-07-25T07:53:20.538Z;vthevenon;mentioned in commit 54b7063c70113df73a69b40c3041e494973d3236 44 98131 2023-07-25T07:49:22.701Z;vthevenon;mentioned in merge request !46 44 98118 2023-07-25T06:31:17.841Z;vthevenon;mentioned in commit 51785e364072dd9ef992f30c4b2e389db91ea250 44 97949 2023-07-20T15:05:23.120Z;vthevenon;mentioned in merge request !45 44 97947 2023-07-20T15:05:14.433Z;vthevenon;created branch [`44-modify-deployment-template-to-run-cloudwatch-agent-as-sidecar`](/atlas/ops/ansible-common-roles/-/compare/master...44-modify-deployment-template-to-run-cloudwatch-agent-as-sidecar) to address this issue 44 97946 2023-07-20T15:03:02.521Z;vthevenon;assigned to @vthevenon
 27 57878 2021-06-23T12:16:03.140Z;edebrye;mentioned in commit 240cdab8dca5423a65c9627d9b0f1fe3bfeda4db 27 57877 2021-06-23T12:16:02.878Z;edebrye;closed via merge request !26 27 57874 2021-06-23T12:13:09.039Z;edebrye;mentioned in merge request !26 27 57873 2021-06-23T12:13:08.686Z;edebrye;created merge request !26 to address this issue
 36 72009 2022-01-14T08:08:12.768Z;edebrye;mentioned in commit 6005752877c0ef710eef5a02f48fb43440ba8c23 36 71711 2022-01-11T13:05:53.166Z;edebrye;mentioned in merge request !34 36 71710 2022-01-11T13:05:52.490Z;edebrye;created merge request !34 to address this issue 36 71708 2022-01-11T13:05:47.668Z;edebrye;assigned to @edebrye
 28 57887 2021-06-23T12:22:26.316Z;edebrye;mentioned in commit 46cd3d32e8bd5998f56c354a3ae58b049b14b3b0 28 57886 2021-06-23T12:22:26.127Z;edebrye;closed via merge request !27 28 57882 2021-06-23T12:21:00.097Z;edebrye;mentioned in merge request !27 28 57881 2021-06-23T12:20:59.777Z;edebrye;created merge request !27 to address this issue
 37 72376 2022-01-18T15:18:34.785Z;edebrye;mentioned in commit 9693c4d764021034f120591c84b0008146492510 37 72293 2022-01-18T09:55:40.642Z;edebrye;changed the description 37 72290 2022-01-18T09:54:45.424Z;edebrye;marked this issue as related to atlas/atlas-admin#301 37 72151 2022-01-17T08:27:23.159Z;edebrye;mentioned in merge request !35 37 72150 2022-01-17T08:27:22.469Z;edebrye;created merge request !35 to address this issue 37 72147 2022-01-17T08:27:13.530Z;edebrye;assigned to @edebrye
 29 57896 2021-06-23T12:50:26.957Z;edebrye;mentioned in commit 4ab47252036e056365bc6b51256834d638dd714e 29 57895 2021-06-23T12:50:26.766Z;edebrye;closed via merge request !28 29 57891 2021-06-23T12:47:57.072Z;edebrye;mentioned in merge request !28 29 57890 2021-06-23T12:47:56.450Z;edebrye;created merge request !28 to address this issue
 38 72201 2022-01-17T14:22:33.970Z;edebrye;mentioned in commit b2cc69132cd7c151ef8a9b5c8e7f8eb88141176e 38 72196 2022-01-17T14:20:32.017Z;edebrye;mentioned in merge request !37 38 72195 2022-01-17T14:20:31.017Z;edebrye;created merge request !37 to address this issue 38 72181 2022-01-17T13:20:48.979Z;edebrye;mentioned in commit e3a77b76939d9937defac9c64ffa370c4a1edfe7 38 72174 2022-01-17T13:15:30.703Z;edebrye;mentioned in merge request !36 38 72173 2022-01-17T13:15:29.944Z;edebrye;created merge request !36 to address this issue 38 72171 2022-01-17T13:15:26.645Z;edebrye;assigned to @edebrye
 39 72406 2022-01-18T16:59:18.387Z;edebrye;mentioned in commit 944fbbb26b400dd486dc83b657e0962a30af2d7d 39 72387 2022-01-18T15:32:34.122Z;edebrye;mentioned in merge request !38 39 72386 2022-01-18T15:32:33.402Z;edebrye;created merge request !38 to address this issue 39 72384 2022-01-18T15:32:28.905Z;edebrye;assigned to @edebrye
 30 58004 2021-06-24T10:59:33.129Z;edebrye;mentioned in commit b5e88433dff53d5c5efc44b5a03a2c56b82ef41c 30 58002 2021-06-24T10:59:32.710Z;edebrye;closed via merge request !29 30 57999 2021-06-24T10:54:15.977Z;edebrye;mentioned in merge request !29 30 57998 2021-06-24T10:54:15.216Z;edebrye;created merge request !29 to address this issue
 31 58086 2021-06-25T06:34:30.646Z;edebrye;mentioned in commit dc3e2586cd62de8688a939349b1fadd83955d4e3 31 58085 2021-06-25T06:34:30.149Z;edebrye;closed via merge request !30 31 58082 2021-06-25T06:31:31.956Z;edebrye;mentioned in merge request !30 31 58081 2021-06-25T06:31:31.754Z;edebrye;created merge request !30 to address this issue
 40 72867 2022-01-25T08:58:40.812Z;edebrye;mentioned in commit 3663efd89da061b0aac476f6481d860bd9d085e9 40 72828 2022-01-24T15:28:33.454Z;edebrye;mentioned in merge request !39 40 72826 2022-01-24T15:28:32.504Z;edebrye;created merge request !39 to address this issue 40 72824 2022-01-24T15:28:23.202Z;edebrye;marked this issue as related to atlas/atlas-product#2513 40 72823 2022-01-24T15:27:55.331Z;edebrye;assigned to @edebrye
 Issue ID Note ID Note Created At;Username;Note Body
 41 79038 2022-04-26T14:14:42.070Z;edebrye;mentioned in commit 18fa9454346faeb0ec76c0acde6606080ce02ce9 41 79035 2022-04-26T14:11:29.252Z;edebrye;mentioned in merge request !42 41 79034 2022-04-26T14:11:28.072Z;edebrye;created merge request !42 to address this issue 41 79027 2022-04-26T13:43:51.094Z;edebrye;mentioned in commit 485c32895571974e5006c0b0d6ce24a1bfcea955 41 79024 2022-04-26T13:32:54.203Z;edebrye;mentioned in merge request !41 41 79022 2022-04-26T13:32:53.356Z;edebrye;created merge request !41 to address this issue 41 79019 2022-04-26T13:17:31.722Z;edebrye;mentioned in commit 40f6642dd6dc611cb75a1a6c2c209798a743b805 41 79014 2022-04-26T12:26:02.797Z;drenouf;mentioned in merge request !40 41 79013 2022-04-26T12:26:01.899Z;drenouf;created merge request !40 to address this issue
 33 58945 2021-07-05T14:35:34.474Z;edebrye;mentioned in commit 2da21fc43c382eb62145b86af0b1712845532eed 33 58944 2021-07-05T14:35:34.009Z;edebrye;closed via merge request !31 33 58301 2021-06-29T08:35:32.438Z;edebrye;mentioned in merge request !31 33 58300 2021-06-29T08:35:32.266Z;edebrye;created merge request !31 to address this issue 33 58299 2021-06-29T08:35:29.432Z;edebrye;changed title from **Add CPU requests in deployments** to **Add CPU requests in {+k8s +}deployments**
 42 81832 2022-06-15T14:30:26.684Z;drenouf;mentioned in commit 2ea51c91fd85c0cbc1c28e7e4fbe4ce0a2d8ccd6 42 81764 2022-06-15T08:48:31.255Z;drenouf;mentioned in merge request !43 42 81762 2022-06-15T08:48:24.476Z;drenouf;created branch [`42-add-pods-annotations`](/atlas/ops/ansible-common-roles/-/compare/master...42-add-pods-annotations) to address this issue 42 81761 2022-06-15T08:48:19.384Z;drenouf;assigned to @drenouf
 25 57353 2021-06-18T07:12:31.881Z;srouaix;closed 25 56961 2021-06-14T12:20:40.534Z;srouaix;mentioned in merge request !24 25 56960 2021-06-14T12:20:40.163Z;srouaix;created merge request !24 to address this issue
 34 67889 2021-11-09T15:08:26.592Z;edebrye;mentioned in commit 6ed34689697b079ad8b164dc42f7ed9627cffa91 34 66875 2021-10-26T13:51:36.209Z;edebrye;mentioned in merge request !32 34 66874 2021-10-26T13:51:36.039Z;edebrye;created merge request !32 to address this issue
 43 82963 2022-07-07T09:17:08.886Z;drenouf;mentioned in commit f0c8a8378f98198c7bc0ffe16241be68913325ad 43 82959 2022-07-07T09:00:11.511Z;drenouf;mentioned in merge request !44 43 82957 2022-07-07T09:00:03.612Z;drenouf;created branch [`43-update-busybox-path`](/atlas/ops/ansible-common-roles/-/compare/master...43-update-busybox-path) to address this issue
