25========== 2021-06-18T07:12:31.881Z;srouaix;closed, 2021-06-14T12:20:40.534Z;srouaix;mentioned in merge request !24, 2021-06-14T12:20:40.163Z;srouaix;created merge request !24 to address this issue
26========== 2021-06-18T07:12:31.881Z;srouaix;closed, 2021-06-14T12:20:40.534Z;srouaix;mentioned in merge request !24, 2021-06-14T12:20:40.163Z;srouaix;created merge request !24 to address this issue, 2021-06-23T11:47:54.122Z;edebrye;mentioned in commit 422ed70dfd04e758290c4ef442cef0f7a1017134, 2021-06-23T11:47:53.617Z;edebrye;closed via merge request !25, 2021-06-23T09:07:15.387Z;edebrye;mentioned in merge request !25, 2021-06-23T09:07:15.239Z;edebrye;created merge request !25 to address this issue
27========== 2021-06-18T07:12:31.881Z;srouaix;closed, 2021-06-14T12:20:40.534Z;srouaix;mentioned in merge request !24, 2021-06-14T12:20:40.163Z;srouaix;created merge request !24 to address this issue, 2021-06-23T11:47:54.122Z;edebrye;mentioned in commit 422ed70dfd04e758290c4ef442cef0f7a1017134, 2021-06-23T11:47:53.617Z;edebrye;closed via merge request !25, 2021-06-23T09:07:15.387Z;edebrye;mentioned in merge request !25, 2021-06-23T09:07:15.239Z;edebrye;created merge request !25 to address this issue, 2021-06-23T12:16:03.140Z;edebrye;mentioned in commit 240cdab8dca5423a65c9627d9b0f1fe3bfeda4db, 2021-06-23T12:16:02.878Z;edebrye;closed via merge request !26, 2021-06-23T12:13:09.039Z;edebrye;mentioned in merge request !26, 2021-06-23T12:13:08.686Z;edebrye;created merge request !26 to address this issue
28========== 2021-06-18T07:12:31.881Z;srouaix;closed, 2021-06-14T12:20:40.534Z;srouaix;mentioned in merge request !24, 2021-06-14T12:20:40.163Z;srouaix;created merge request !24 to address this issue, 2021-06-23T11:47:54.122Z;edebrye;mentioned in commit 422ed70dfd04e758290c4ef442cef0f7a1017134, 2021-06-23T11:47:53.617Z;edebrye;closed via merge request !25, 2021-06-23T09:07:15.387Z;edebrye;mentioned in merge request !25, 2021-06-23T09:07:15.239Z;edebrye;created merge request !25 to address this issue, 2021-06-23T12:16:03.140Z;edebrye;mentioned in commit 240cdab8dca5423a65c9627d9b0f1fe3bfeda4db, 2021-06-23T12:16:02.878Z;edebrye;closed via merge request !26, 2021-06-23T12:13:09.039Z;edebrye;mentioned in merge request !26, 2021-06-23T12:13:08.686Z;edebrye;created merge request !26 to address this issue, 2021-06-23T12:22:26.316Z;edebrye;mentioned in commit 46cd3d32e8bd5998f56c354a3ae58b049b14b3b0, 2021-06-23T12:22:26.127Z;edebrye;closed via merge request !27, 2021-06-23T12:21:00.097Z;edebrye;mentioned in merge request !27, 2021-06-23T12:20:59.777Z;edebrye;created merge request !27 to address this issue
29========== 2021-06-18T07:12:31.881Z;srouaix;closed, 2021-06-14T12:20:40.534Z;srouaix;mentioned in merge request !24, 2021-06-14T12:20:40.163Z;srouaix;created merge request !24 to address this issue, 2021-06-23T11:47:54.122Z;edebrye;mentioned in commit 422ed70dfd04e758290c4ef442cef0f7a1017134, 2021-06-23T11:47:53.617Z;edebrye;closed via merge request !25, 2021-06-23T09:07:15.387Z;edebrye;mentioned in merge request !25, 2021-06-23T09:07:15.239Z;edebrye;created merge request !25 to address this issue, 2021-06-23T12:16:03.140Z;edebrye;mentioned in commit 240cdab8dca5423a65c9627d9b0f1fe3bfeda4db, 2021-06-23T12:16:02.878Z;edebrye;closed via merge request !26, 2021-06-23T12:13:09.039Z;edebrye;mentioned in merge request !26, 2021-06-23T12:13:08.686Z;edebrye;created merge request !26 to address this issue, 2021-06-23T12:22:26.316Z;edebrye;mentioned in commit 46cd3d32e8bd5998f56c354a3ae58b049b14b3b0, 2021-06-23T12:22:26.127Z;edebrye;closed via merge request !27, 2021-06-23T12:21:00.097Z;edebrye;mentioned in merge request !27, 2021-06-23T12:20:59.777Z;edebrye;created merge request !27 to address this issue, 2021-06-23T12:50:26.957Z;edebrye;mentioned in commit 4ab47252036e056365bc6b51256834d638dd714e, 2021-06-23T12:50:26.766Z;edebrye;closed via merge request !28, 2021-06-23T12:47:57.072Z;edebrye;mentioned in merge request !28, 2021-06-23T12:47:56.450Z;edebrye;created merge request !28 to address this issue
30========== 2021-06-18T07:12:31.881Z;srouaix;closed, 2021-06-14T12:20:40.534Z;srouaix;mentioned in merge request !24, 2021-06-14T12:20:40.163Z;srouaix;created merge request !24 to address this issue, 2021-06-23T11:47:54.122Z;edebrye;mentioned in commit 422ed70dfd04e758290c4ef442cef0f7a1017134, 2021-06-23T11:47:53.617Z;edebrye;closed via merge request !25, 2021-06-23T09:07:15.387Z;edebrye;mentioned in merge request !25, 2021-06-23T09:07:15.239Z;edebrye;created merge request !25 to address this issue, 2021-06-23T12:16:03.140Z;edebrye;mentioned in commit 240cdab8dca5423a65c9627d9b0f1fe3bfeda4db, 2021-06-23T12:16:02.878Z;edebrye;closed via merge request !26, 2021-06-23T12:13:09.039Z;edebrye;mentioned in merge request !26, 2021-06-23T12:13:08.686Z;edebrye;created merge request !26 to address this issue, 2021-06-23T12:22:26.316Z;edebrye;mentioned in commit 46cd3d32e8bd5998f56c354a3ae58b049b14b3b0, 2021-06-23T12:22:26.127Z;edebrye;closed via merge request !27, 2021-06-23T12:21:00.097Z;edebrye;mentioned in merge request !27, 2021-06-23T12:20:59.777Z;edebrye;created merge request !27 to address this issue, 2021-06-23T12:50:26.957Z;edebrye;mentioned in commit 4ab47252036e056365bc6b51256834d638dd714e, 2021-06-23T12:50:26.766Z;edebrye;closed via merge request !28, 2021-06-23T12:47:57.072Z;edebrye;mentioned in merge request !28, 2021-06-23T12:47:56.450Z;edebrye;created merge request !28 to address this issue, 2021-06-24T10:59:33.129Z;edebrye;mentioned in commit b5e88433dff53d5c5efc44b5a03a2c56b82ef41c, 2021-06-24T10:59:32.710Z;edebrye;closed via merge request !29, 2021-06-24T10:54:15.977Z;edebrye;mentioned in merge request !29, 2021-06-24T10:54:15.216Z;edebrye;created merge request !29 to address this issue
31========== 2021-06-18T07:12:31.881Z;srouaix;closed, 2021-06-14T12:20:40.534Z;srouaix;mentioned in merge request !24, 2021-06-14T12:20:40.163Z;srouaix;created merge request !24 to address this issue, 2021-06-23T11:47:54.122Z;edebrye;mentioned in commit 422ed70dfd04e758290c4ef442cef0f7a1017134, 2021-06-23T11:47:53.617Z;edebrye;closed via merge request !25, 2021-06-23T09:07:15.387Z;edebrye;mentioned in merge request !25, 2021-06-23T09:07:15.239Z;edebrye;created merge request !25 to address this issue, 2021-06-23T12:16:03.140Z;edebrye;mentioned in commit 240cdab8dca5423a65c9627d9b0f1fe3bfeda4db, 2021-06-23T12:16:02.878Z;edebrye;closed via merge request !26, 2021-06-23T12:13:09.039Z;edebrye;mentioned in merge request !26, 2021-06-23T12:13:08.686Z;edebrye;created merge request !26 to address this issue, 2021-06-23T12:22:26.316Z;edebrye;mentioned in commit 46cd3d32e8bd5998f56c354a3ae58b049b14b3b0, 2021-06-23T12:22:26.127Z;edebrye;closed via merge request !27, 2021-06-23T12:21:00.097Z;edebrye;mentioned in merge request !27, 2021-06-23T12:20:59.777Z;edebrye;created merge request !27 to address this issue, 2021-06-23T12:50:26.957Z;edebrye;mentioned in commit 4ab47252036e056365bc6b51256834d638dd714e, 2021-06-23T12:50:26.766Z;edebrye;closed via merge request !28, 2021-06-23T12:47:57.072Z;edebrye;mentioned in merge request !28, 2021-06-23T12:47:56.450Z;edebrye;created merge request !28 to address this issue, 2021-06-24T10:59:33.129Z;edebrye;mentioned in commit b5e88433dff53d5c5efc44b5a03a2c56b82ef41c, 2021-06-24T10:59:32.710Z;edebrye;closed via merge request !29, 2021-06-24T10:54:15.977Z;edebrye;mentioned in merge request !29, 2021-06-24T10:54:15.216Z;edebrye;created merge request !29 to address this issue, 2021-06-25T06:34:30.646Z;edebrye;mentioned in commit dc3e2586cd62de8688a939349b1fadd83955d4e3, 2021-06-25T06:34:30.149Z;edebrye;closed via merge request !30, 2021-06-25T06:31:31.956Z;edebrye;mentioned in merge request !30, 2021-06-25T06:31:31.754Z;edebrye;created merge request !30 to address this issue
33========== 2021-06-18T07:12:31.881Z;srouaix;closed, 2021-06-14T12:20:40.534Z;srouaix;mentioned in merge request !24, 2021-06-14T12:20:40.163Z;srouaix;created merge request !24 to address this issue, 2021-06-23T11:47:54.122Z;edebrye;mentioned in commit 422ed70dfd04e758290c4ef442cef0f7a1017134, 2021-06-23T11:47:53.617Z;edebrye;closed via merge request !25, 2021-06-23T09:07:15.387Z;edebrye;mentioned in merge request !25, 2021-06-23T09:07:15.239Z;edebrye;created merge request !25 to address this issue, 2021-06-23T12:16:03.140Z;edebrye;mentioned in commit 240cdab8dca5423a65c9627d9b0f1fe3bfeda4db, 2021-06-23T12:16:02.878Z;edebrye;closed via merge request !26, 2021-06-23T12:13:09.039Z;edebrye;mentioned in merge request !26, 2021-06-23T12:13:08.686Z;edebrye;created merge request !26 to address this issue, 2021-06-23T12:22:26.316Z;edebrye;mentioned in commit 46cd3d32e8bd5998f56c354a3ae58b049b14b3b0, 2021-06-23T12:22:26.127Z;edebrye;closed via merge request !27, 2021-06-23T12:21:00.097Z;edebrye;mentioned in merge request !27, 2021-06-23T12:20:59.777Z;edebrye;created merge request !27 to address this issue, 2021-06-23T12:50:26.957Z;edebrye;mentioned in commit 4ab47252036e056365bc6b51256834d638dd714e, 2021-06-23T12:50:26.766Z;edebrye;closed via merge request !28, 2021-06-23T12:47:57.072Z;edebrye;mentioned in merge request !28, 2021-06-23T12:47:56.450Z;edebrye;created merge request !28 to address this issue, 2021-06-24T10:59:33.129Z;edebrye;mentioned in commit b5e88433dff53d5c5efc44b5a03a2c56b82ef41c, 2021-06-24T10:59:32.710Z;edebrye;closed via merge request !29, 2021-06-24T10:54:15.977Z;edebrye;mentioned in merge request !29, 2021-06-24T10:54:15.216Z;edebrye;created merge request !29 to address this issue, 2021-06-25T06:34:30.646Z;edebrye;mentioned in commit dc3e2586cd62de8688a939349b1fadd83955d4e3, 2021-06-25T06:34:30.149Z;edebrye;closed via merge request !30, 2021-06-25T06:31:31.956Z;edebrye;mentioned in merge request !30, 2021-06-25T06:31:31.754Z;edebrye;created merge request !30 to address this issue, 2021-07-05T14:35:34.474Z;edebrye;mentioned in commit 2da21fc43c382eb62145b86af0b1712845532eed, 2021-07-05T14:35:34.009Z;edebrye;closed via merge request !31, 2021-06-29T08:35:32.438Z;edebrye;mentioned in merge request !31, 2021-06-29T08:35:32.266Z;edebrye;created merge request !31 to address this issue, 2021-06-29T08:35:29.432Z;edebrye;changed title from **Add CPU requests in deployments** to **Add CPU requests in {+k8s +}deployments**
34========== 2021-06-18T07:12:31.881Z;srouaix;closed, 2021-06-14T12:20:40.534Z;srouaix;mentioned in merge request !24, 2021-06-14T12:20:40.163Z;srouaix;created merge request !24 to address this issue, 2021-06-23T11:47:54.122Z;edebrye;mentioned in commit 422ed70dfd04e758290c4ef442cef0f7a1017134, 2021-06-23T11:47:53.617Z;edebrye;closed via merge request !25, 2021-06-23T09:07:15.387Z;edebrye;mentioned in merge request !25, 2021-06-23T09:07:15.239Z;edebrye;created merge request !25 to address this issue, 2021-06-23T12:16:03.140Z;edebrye;mentioned in commit 240cdab8dca5423a65c9627d9b0f1fe3bfeda4db, 2021-06-23T12:16:02.878Z;edebrye;closed via merge request !26, 2021-06-23T12:13:09.039Z;edebrye;mentioned in merge request !26, 2021-06-23T12:13:08.686Z;edebrye;created merge request !26 to address this issue, 2021-06-23T12:22:26.316Z;edebrye;mentioned in commit 46cd3d32e8bd5998f56c354a3ae58b049b14b3b0, 2021-06-23T12:22:26.127Z;edebrye;closed via merge request !27, 2021-06-23T12:21:00.097Z;edebrye;mentioned in merge request !27, 2021-06-23T12:20:59.777Z;edebrye;created merge request !27 to address this issue, 2021-06-23T12:50:26.957Z;edebrye;mentioned in commit 4ab47252036e056365bc6b51256834d638dd714e, 2021-06-23T12:50:26.766Z;edebrye;closed via merge request !28, 2021-06-23T12:47:57.072Z;edebrye;mentioned in merge request !28, 2021-06-23T12:47:56.450Z;edebrye;created merge request !28 to address this issue, 2021-06-24T10:59:33.129Z;edebrye;mentioned in commit b5e88433dff53d5c5efc44b5a03a2c56b82ef41c, 2021-06-24T10:59:32.710Z;edebrye;closed via merge request !29, 2021-06-24T10:54:15.977Z;edebrye;mentioned in merge request !29, 2021-06-24T10:54:15.216Z;edebrye;created merge request !29 to address this issue, 2021-06-25T06:34:30.646Z;edebrye;mentioned in commit dc3e2586cd62de8688a939349b1fadd83955d4e3, 2021-06-25T06:34:30.149Z;edebrye;closed via merge request !30, 2021-06-25T06:31:31.956Z;edebrye;mentioned in merge request !30, 2021-06-25T06:31:31.754Z;edebrye;created merge request !30 to address this issue, 2021-07-05T14:35:34.474Z;edebrye;mentioned in commit 2da21fc43c382eb62145b86af0b1712845532eed, 2021-07-05T14:35:34.009Z;edebrye;closed via merge request !31, 2021-06-29T08:35:32.438Z;edebrye;mentioned in merge request !31, 2021-06-29T08:35:32.266Z;edebrye;created merge request !31 to address this issue, 2021-06-29T08:35:29.432Z;edebrye;changed title from **Add CPU requests in deployments** to **Add CPU requests in {+k8s +}deployments**, 2021-11-09T15:08:26.592Z;edebrye;mentioned in commit 6ed34689697b079ad8b164dc42f7ed9627cffa91, 2021-10-26T13:51:36.209Z;edebrye;mentioned in merge request !32, 2021-10-26T13:51:36.039Z;edebrye;created merge request !32 to address this issue
35========== 2021-06-18T07:12:31.881Z;srouaix;closed, 2021-06-14T12:20:40.534Z;srouaix;mentioned in merge request !24, 2021-06-14T12:20:40.163Z;srouaix;created merge request !24 to address this issue, 2021-06-23T11:47:54.122Z;edebrye;mentioned in commit 422ed70dfd04e758290c4ef442cef0f7a1017134, 2021-06-23T11:47:53.617Z;edebrye;closed via merge request !25, 2021-06-23T09:07:15.387Z;edebrye;mentioned in merge request !25, 2021-06-23T09:07:15.239Z;edebrye;created merge request !25 to address this issue, 2021-06-23T12:16:03.140Z;edebrye;mentioned in commit 240cdab8dca5423a65c9627d9b0f1fe3bfeda4db, 2021-06-23T12:16:02.878Z;edebrye;closed via merge request !26, 2021-06-23T12:13:09.039Z;edebrye;mentioned in merge request !26, 2021-06-23T12:13:08.686Z;edebrye;created merge request !26 to address this issue, 2021-06-23T12:22:26.316Z;edebrye;mentioned in commit 46cd3d32e8bd5998f56c354a3ae58b049b14b3b0, 2021-06-23T12:22:26.127Z;edebrye;closed via merge request !27, 2021-06-23T12:21:00.097Z;edebrye;mentioned in merge request !27, 2021-06-23T12:20:59.777Z;edebrye;created merge request !27 to address this issue, 2021-06-23T12:50:26.957Z;edebrye;mentioned in commit 4ab47252036e056365bc6b51256834d638dd714e, 2021-06-23T12:50:26.766Z;edebrye;closed via merge request !28, 2021-06-23T12:47:57.072Z;edebrye;mentioned in merge request !28, 2021-06-23T12:47:56.450Z;edebrye;created merge request !28 to address this issue, 2021-06-24T10:59:33.129Z;edebrye;mentioned in commit b5e88433dff53d5c5efc44b5a03a2c56b82ef41c, 2021-06-24T10:59:32.710Z;edebrye;closed via merge request !29, 2021-06-24T10:54:15.977Z;edebrye;mentioned in merge request !29, 2021-06-24T10:54:15.216Z;edebrye;created merge request !29 to address this issue, 2021-06-25T06:34:30.646Z;edebrye;mentioned in commit dc3e2586cd62de8688a939349b1fadd83955d4e3, 2021-06-25T06:34:30.149Z;edebrye;closed via merge request !30, 2021-06-25T06:31:31.956Z;edebrye;mentioned in merge request !30, 2021-06-25T06:31:31.754Z;edebrye;created merge request !30 to address this issue, 2021-07-05T14:35:34.474Z;edebrye;mentioned in commit 2da21fc43c382eb62145b86af0b1712845532eed, 2021-07-05T14:35:34.009Z;edebrye;closed via merge request !31, 2021-06-29T08:35:32.438Z;edebrye;mentioned in merge request !31, 2021-06-29T08:35:32.266Z;edebrye;created merge request !31 to address this issue, 2021-06-29T08:35:29.432Z;edebrye;changed title from **Add CPU requests in deployments** to **Add CPU requests in {+k8s +}deployments**, 2021-11-09T15:08:26.592Z;edebrye;mentioned in commit 6ed34689697b079ad8b164dc42f7ed9627cffa91, 2021-10-26T13:51:36.209Z;edebrye;mentioned in merge request !32, 2021-10-26T13:51:36.039Z;edebrye;created merge request !32 to address this issue, 2021-11-18T15:42:08.828Z;edebrye;mentioned in commit 0cd1d2e0dac5a10f892a0cbec1e1e784ae88b622, 2021-11-18T15:37:32.826Z;edebrye;mentioned in merge request !33, 2021-11-18T15:37:32.415Z;edebrye;created merge request !33 to address this issue
36========== 2021-06-18T07:12:31.881Z;srouaix;closed, 2021-06-14T12:20:40.534Z;srouaix;mentioned in merge request !24, 2021-06-14T12:20:40.163Z;srouaix;created merge request !24 to address this issue, 2021-06-23T11:47:54.122Z;edebrye;mentioned in commit 422ed70dfd04e758290c4ef442cef0f7a1017134, 2021-06-23T11:47:53.617Z;edebrye;closed via merge request !25, 2021-06-23T09:07:15.387Z;edebrye;mentioned in merge request !25, 2021-06-23T09:07:15.239Z;edebrye;created merge request !25 to address this issue, 2021-06-23T12:16:03.140Z;edebrye;mentioned in commit 240cdab8dca5423a65c9627d9b0f1fe3bfeda4db, 2021-06-23T12:16:02.878Z;edebrye;closed via merge request !26, 2021-06-23T12:13:09.039Z;edebrye;mentioned in merge request !26, 2021-06-23T12:13:08.686Z;edebrye;created merge request !26 to address this issue, 2021-06-23T12:22:26.316Z;edebrye;mentioned in commit 46cd3d32e8bd5998f56c354a3ae58b049b14b3b0, 2021-06-23T12:22:26.127Z;edebrye;closed via merge request !27, 2021-06-23T12:21:00.097Z;edebrye;mentioned in merge request !27, 2021-06-23T12:20:59.777Z;edebrye;created merge request !27 to address this issue, 2021-06-23T12:50:26.957Z;edebrye;mentioned in commit 4ab47252036e056365bc6b51256834d638dd714e, 2021-06-23T12:50:26.766Z;edebrye;closed via merge request !28, 2021-06-23T12:47:57.072Z;edebrye;mentioned in merge request !28, 2021-06-23T12:47:56.450Z;edebrye;created merge request !28 to address this issue, 2021-06-24T10:59:33.129Z;edebrye;mentioned in commit b5e88433dff53d5c5efc44b5a03a2c56b82ef41c, 2021-06-24T10:59:32.710Z;edebrye;closed via merge request !29, 2021-06-24T10:54:15.977Z;edebrye;mentioned in merge request !29, 2021-06-24T10:54:15.216Z;edebrye;created merge request !29 to address this issue, 2021-06-25T06:34:30.646Z;edebrye;mentioned in commit dc3e2586cd62de8688a939349b1fadd83955d4e3, 2021-06-25T06:34:30.149Z;edebrye;closed via merge request !30, 2021-06-25T06:31:31.956Z;edebrye;mentioned in merge request !30, 2021-06-25T06:31:31.754Z;edebrye;created merge request !30 to address this issue, 2021-07-05T14:35:34.474Z;edebrye;mentioned in commit 2da21fc43c382eb62145b86af0b1712845532eed, 2021-07-05T14:35:34.009Z;edebrye;closed via merge request !31, 2021-06-29T08:35:32.438Z;edebrye;mentioned in merge request !31, 2021-06-29T08:35:32.266Z;edebrye;created merge request !31 to address this issue, 2021-06-29T08:35:29.432Z;edebrye;changed title from **Add CPU requests in deployments** to **Add CPU requests in {+k8s +}deployments**, 2021-11-09T15:08:26.592Z;edebrye;mentioned in commit 6ed34689697b079ad8b164dc42f7ed9627cffa91, 2021-10-26T13:51:36.209Z;edebrye;mentioned in merge request !32, 2021-10-26T13:51:36.039Z;edebrye;created merge request !32 to address this issue, 2021-11-18T15:42:08.828Z;edebrye;mentioned in commit 0cd1d2e0dac5a10f892a0cbec1e1e784ae88b622, 2021-11-18T15:37:32.826Z;edebrye;mentioned in merge request !33, 2021-11-18T15:37:32.415Z;edebrye;created merge request !33 to address this issue, 2022-01-14T08:08:12.768Z;edebrye;mentioned in commit 6005752877c0ef710eef5a02f48fb43440ba8c23, 2022-01-11T13:05:53.166Z;edebrye;mentioned in merge request !34, 2022-01-11T13:05:52.490Z;edebrye;created merge request !34 to address this issue, 2022-01-11T13:05:47.668Z;edebrye;assigned to @edebrye
37========== 2021-06-18T07:12:31.881Z;srouaix;closed, 2021-06-14T12:20:40.534Z;srouaix;mentioned in merge request !24, 2021-06-14T12:20:40.163Z;srouaix;created merge request !24 to address this issue, 2021-06-23T11:47:54.122Z;edebrye;mentioned in commit 422ed70dfd04e758290c4ef442cef0f7a1017134, 2021-06-23T11:47:53.617Z;edebrye;closed via merge request !25, 2021-06-23T09:07:15.387Z;edebrye;mentioned in merge request !25, 2021-06-23T09:07:15.239Z;edebrye;created merge request !25 to address this issue, 2021-06-23T12:16:03.140Z;edebrye;mentioned in commit 240cdab8dca5423a65c9627d9b0f1fe3bfeda4db, 2021-06-23T12:16:02.878Z;edebrye;closed via merge request !26, 2021-06-23T12:13:09.039Z;edebrye;mentioned in merge request !26, 2021-06-23T12:13:08.686Z;edebrye;created merge request !26 to address this issue, 2021-06-23T12:22:26.316Z;edebrye;mentioned in commit 46cd3d32e8bd5998f56c354a3ae58b049b14b3b0, 2021-06-23T12:22:26.127Z;edebrye;closed via merge request !27, 2021-06-23T12:21:00.097Z;edebrye;mentioned in merge request !27, 2021-06-23T12:20:59.777Z;edebrye;created merge request !27 to address this issue, 2021-06-23T12:50:26.957Z;edebrye;mentioned in commit 4ab47252036e056365bc6b51256834d638dd714e, 2021-06-23T12:50:26.766Z;edebrye;closed via merge request !28, 2021-06-23T12:47:57.072Z;edebrye;mentioned in merge request !28, 2021-06-23T12:47:56.450Z;edebrye;created merge request !28 to address this issue, 2021-06-24T10:59:33.129Z;edebrye;mentioned in commit b5e88433dff53d5c5efc44b5a03a2c56b82ef41c, 2021-06-24T10:59:32.710Z;edebrye;closed via merge request !29, 2021-06-24T10:54:15.977Z;edebrye;mentioned in merge request !29, 2021-06-24T10:54:15.216Z;edebrye;created merge request !29 to address this issue, 2021-06-25T06:34:30.646Z;edebrye;mentioned in commit dc3e2586cd62de8688a939349b1fadd83955d4e3, 2021-06-25T06:34:30.149Z;edebrye;closed via merge request !30, 2021-06-25T06:31:31.956Z;edebrye;mentioned in merge request !30, 2021-06-25T06:31:31.754Z;edebrye;created merge request !30 to address this issue, 2021-07-05T14:35:34.474Z;edebrye;mentioned in commit 2da21fc43c382eb62145b86af0b1712845532eed, 2021-07-05T14:35:34.009Z;edebrye;closed via merge request !31, 2021-06-29T08:35:32.438Z;edebrye;mentioned in merge request !31, 2021-06-29T08:35:32.266Z;edebrye;created merge request !31 to address this issue, 2021-06-29T08:35:29.432Z;edebrye;changed title from **Add CPU requests in deployments** to **Add CPU requests in {+k8s +}deployments**, 2021-11-09T15:08:26.592Z;edebrye;mentioned in commit 6ed34689697b079ad8b164dc42f7ed9627cffa91, 2021-10-26T13:51:36.209Z;edebrye;mentioned in merge request !32, 2021-10-26T13:51:36.039Z;edebrye;created merge request !32 to address this issue, 2021-11-18T15:42:08.828Z;edebrye;mentioned in commit 0cd1d2e0dac5a10f892a0cbec1e1e784ae88b622, 2021-11-18T15:37:32.826Z;edebrye;mentioned in merge request !33, 2021-11-18T15:37:32.415Z;edebrye;created merge request !33 to address this issue, 2022-01-14T08:08:12.768Z;edebrye;mentioned in commit 6005752877c0ef710eef5a02f48fb43440ba8c23, 2022-01-11T13:05:53.166Z;edebrye;mentioned in merge request !34, 2022-01-11T13:05:52.490Z;edebrye;created merge request !34 to address this issue, 2022-01-11T13:05:47.668Z;edebrye;assigned to @edebrye, 2022-01-18T15:18:34.785Z;edebrye;mentioned in commit 9693c4d764021034f120591c84b0008146492510, 2022-01-18T09:55:40.642Z;edebrye;changed the description, 2022-01-18T09:54:45.424Z;edebrye;marked this issue as related to atlas/atlas-admin#301, 2022-01-17T08:27:23.159Z;edebrye;mentioned in merge request !35, 2022-01-17T08:27:22.469Z;edebrye;created merge request !35 to address this issue, 2022-01-17T08:27:13.530Z;edebrye;assigned to @edebrye
38========== 2021-06-18T07:12:31.881Z;srouaix;closed, 2021-06-14T12:20:40.534Z;srouaix;mentioned in merge request !24, 2021-06-14T12:20:40.163Z;srouaix;created merge request !24 to address this issue, 2021-06-23T11:47:54.122Z;edebrye;mentioned in commit 422ed70dfd04e758290c4ef442cef0f7a1017134, 2021-06-23T11:47:53.617Z;edebrye;closed via merge request !25, 2021-06-23T09:07:15.387Z;edebrye;mentioned in merge request !25, 2021-06-23T09:07:15.239Z;edebrye;created merge request !25 to address this issue, 2021-06-23T12:16:03.140Z;edebrye;mentioned in commit 240cdab8dca5423a65c9627d9b0f1fe3bfeda4db, 2021-06-23T12:16:02.878Z;edebrye;closed via merge request !26, 2021-06-23T12:13:09.039Z;edebrye;mentioned in merge request !26, 2021-06-23T12:13:08.686Z;edebrye;created merge request !26 to address this issue, 2021-06-23T12:22:26.316Z;edebrye;mentioned in commit 46cd3d32e8bd5998f56c354a3ae58b049b14b3b0, 2021-06-23T12:22:26.127Z;edebrye;closed via merge request !27, 2021-06-23T12:21:00.097Z;edebrye;mentioned in merge request !27, 2021-06-23T12:20:59.777Z;edebrye;created merge request !27 to address this issue, 2021-06-23T12:50:26.957Z;edebrye;mentioned in commit 4ab47252036e056365bc6b51256834d638dd714e, 2021-06-23T12:50:26.766Z;edebrye;closed via merge request !28, 2021-06-23T12:47:57.072Z;edebrye;mentioned in merge request !28, 2021-06-23T12:47:56.450Z;edebrye;created merge request !28 to address this issue, 2021-06-24T10:59:33.129Z;edebrye;mentioned in commit b5e88433dff53d5c5efc44b5a03a2c56b82ef41c, 2021-06-24T10:59:32.710Z;edebrye;closed via merge request !29, 2021-06-24T10:54:15.977Z;edebrye;mentioned in merge request !29, 2021-06-24T10:54:15.216Z;edebrye;created merge request !29 to address this issue, 2021-06-25T06:34:30.646Z;edebrye;mentioned in commit dc3e2586cd62de8688a939349b1fadd83955d4e3, 2021-06-25T06:34:30.149Z;edebrye;closed via merge request !30, 2021-06-25T06:31:31.956Z;edebrye;mentioned in merge request !30, 2021-06-25T06:31:31.754Z;edebrye;created merge request !30 to address this issue, 2021-07-05T14:35:34.474Z;edebrye;mentioned in commit 2da21fc43c382eb62145b86af0b1712845532eed, 2021-07-05T14:35:34.009Z;edebrye;closed via merge request !31, 2021-06-29T08:35:32.438Z;edebrye;mentioned in merge request !31, 2021-06-29T08:35:32.266Z;edebrye;created merge request !31 to address this issue, 2021-06-29T08:35:29.432Z;edebrye;changed title from **Add CPU requests in deployments** to **Add CPU requests in {+k8s +}deployments**, 2021-11-09T15:08:26.592Z;edebrye;mentioned in commit 6ed34689697b079ad8b164dc42f7ed9627cffa91, 2021-10-26T13:51:36.209Z;edebrye;mentioned in merge request !32, 2021-10-26T13:51:36.039Z;edebrye;created merge request !32 to address this issue, 2021-11-18T15:42:08.828Z;edebrye;mentioned in commit 0cd1d2e0dac5a10f892a0cbec1e1e784ae88b622, 2021-11-18T15:37:32.826Z;edebrye;mentioned in merge request !33, 2021-11-18T15:37:32.415Z;edebrye;created merge request !33 to address this issue, 2022-01-14T08:08:12.768Z;edebrye;mentioned in commit 6005752877c0ef710eef5a02f48fb43440ba8c23, 2022-01-11T13:05:53.166Z;edebrye;mentioned in merge request !34, 2022-01-11T13:05:52.490Z;edebrye;created merge request !34 to address this issue, 2022-01-11T13:05:47.668Z;edebrye;assigned to @edebrye, 2022-01-18T15:18:34.785Z;edebrye;mentioned in commit 9693c4d764021034f120591c84b0008146492510, 2022-01-18T09:55:40.642Z;edebrye;changed the description, 2022-01-18T09:54:45.424Z;edebrye;marked this issue as related to atlas/atlas-admin#301, 2022-01-17T08:27:23.159Z;edebrye;mentioned in merge request !35, 2022-01-17T08:27:22.469Z;edebrye;created merge request !35 to address this issue, 2022-01-17T08:27:13.530Z;edebrye;assigned to @edebrye, 2022-01-17T14:22:33.970Z;edebrye;mentioned in commit b2cc69132cd7c151ef8a9b5c8e7f8eb88141176e, 2022-01-17T14:20:32.017Z;edebrye;mentioned in merge request !37, 2022-01-17T14:20:31.017Z;edebrye;created merge request !37 to address this issue, 2022-01-17T13:20:48.979Z;edebrye;mentioned in commit e3a77b76939d9937defac9c64ffa370c4a1edfe7, 2022-01-17T13:15:30.703Z;edebrye;mentioned in merge request !36, 2022-01-17T13:15:29.944Z;edebrye;created merge request !36 to address this issue, 2022-01-17T13:15:26.645Z;edebrye;assigned to @edebrye
39========== 2021-06-18T07:12:31.881Z;srouaix;closed, 2021-06-14T12:20:40.534Z;srouaix;mentioned in merge request !24, 2021-06-14T12:20:40.163Z;srouaix;created merge request !24 to address this issue, 2021-06-23T11:47:54.122Z;edebrye;mentioned in commit 422ed70dfd04e758290c4ef442cef0f7a1017134, 2021-06-23T11:47:53.617Z;edebrye;closed via merge request !25, 2021-06-23T09:07:15.387Z;edebrye;mentioned in merge request !25, 2021-06-23T09:07:15.239Z;edebrye;created merge request !25 to address this issue, 2021-06-23T12:16:03.140Z;edebrye;mentioned in commit 240cdab8dca5423a65c9627d9b0f1fe3bfeda4db, 2021-06-23T12:16:02.878Z;edebrye;closed via merge request !26, 2021-06-23T12:13:09.039Z;edebrye;mentioned in merge request !26, 2021-06-23T12:13:08.686Z;edebrye;created merge request !26 to address this issue, 2021-06-23T12:22:26.316Z;edebrye;mentioned in commit 46cd3d32e8bd5998f56c354a3ae58b049b14b3b0, 2021-06-23T12:22:26.127Z;edebrye;closed via merge request !27, 2021-06-23T12:21:00.097Z;edebrye;mentioned in merge request !27, 2021-06-23T12:20:59.777Z;edebrye;created merge request !27 to address this issue, 2021-06-23T12:50:26.957Z;edebrye;mentioned in commit 4ab47252036e056365bc6b51256834d638dd714e, 2021-06-23T12:50:26.766Z;edebrye;closed via merge request !28, 2021-06-23T12:47:57.072Z;edebrye;mentioned in merge request !28, 2021-06-23T12:47:56.450Z;edebrye;created merge request !28 to address this issue, 2021-06-24T10:59:33.129Z;edebrye;mentioned in commit b5e88433dff53d5c5efc44b5a03a2c56b82ef41c, 2021-06-24T10:59:32.710Z;edebrye;closed via merge request !29, 2021-06-24T10:54:15.977Z;edebrye;mentioned in merge request !29, 2021-06-24T10:54:15.216Z;edebrye;created merge request !29 to address this issue, 2021-06-25T06:34:30.646Z;edebrye;mentioned in commit dc3e2586cd62de8688a939349b1fadd83955d4e3, 2021-06-25T06:34:30.149Z;edebrye;closed via merge request !30, 2021-06-25T06:31:31.956Z;edebrye;mentioned in merge request !30, 2021-06-25T06:31:31.754Z;edebrye;created merge request !30 to address this issue, 2021-07-05T14:35:34.474Z;edebrye;mentioned in commit 2da21fc43c382eb62145b86af0b1712845532eed, 2021-07-05T14:35:34.009Z;edebrye;closed via merge request !31, 2021-06-29T08:35:32.438Z;edebrye;mentioned in merge request !31, 2021-06-29T08:35:32.266Z;edebrye;created merge request !31 to address this issue, 2021-06-29T08:35:29.432Z;edebrye;changed title from **Add CPU requests in deployments** to **Add CPU requests in {+k8s +}deployments**, 2021-11-09T15:08:26.592Z;edebrye;mentioned in commit 6ed34689697b079ad8b164dc42f7ed9627cffa91, 2021-10-26T13:51:36.209Z;edebrye;mentioned in merge request !32, 2021-10-26T13:51:36.039Z;edebrye;created merge request !32 to address this issue, 2021-11-18T15:42:08.828Z;edebrye;mentioned in commit 0cd1d2e0dac5a10f892a0cbec1e1e784ae88b622, 2021-11-18T15:37:32.826Z;edebrye;mentioned in merge request !33, 2021-11-18T15:37:32.415Z;edebrye;created merge request !33 to address this issue, 2022-01-14T08:08:12.768Z;edebrye;mentioned in commit 6005752877c0ef710eef5a02f48fb43440ba8c23, 2022-01-11T13:05:53.166Z;edebrye;mentioned in merge request !34, 2022-01-11T13:05:52.490Z;edebrye;created merge request !34 to address this issue, 2022-01-11T13:05:47.668Z;edebrye;assigned to @edebrye, 2022-01-18T15:18:34.785Z;edebrye;mentioned in commit 9693c4d764021034f120591c84b0008146492510, 2022-01-18T09:55:40.642Z;edebrye;changed the description, 2022-01-18T09:54:45.424Z;edebrye;marked this issue as related to atlas/atlas-admin#301, 2022-01-17T08:27:23.159Z;edebrye;mentioned in merge request !35, 2022-01-17T08:27:22.469Z;edebrye;created merge request !35 to address this issue, 2022-01-17T08:27:13.530Z;edebrye;assigned to @edebrye, 2022-01-17T14:22:33.970Z;edebrye;mentioned in commit b2cc69132cd7c151ef8a9b5c8e7f8eb88141176e, 2022-01-17T14:20:32.017Z;edebrye;mentioned in merge request !37, 2022-01-17T14:20:31.017Z;edebrye;created merge request !37 to address this issue, 2022-01-17T13:20:48.979Z;edebrye;mentioned in commit e3a77b76939d9937defac9c64ffa370c4a1edfe7, 2022-01-17T13:15:30.703Z;edebrye;mentioned in merge request !36, 2022-01-17T13:15:29.944Z;edebrye;created merge request !36 to address this issue, 2022-01-17T13:15:26.645Z;edebrye;assigned to @edebrye, 2022-01-18T16:59:18.387Z;edebrye;mentioned in commit 944fbbb26b400dd486dc83b657e0962a30af2d7d, 2022-01-18T15:32:34.122Z;edebrye;mentioned in merge request !38, 2022-01-18T15:32:33.402Z;edebrye;created merge request !38 to address this issue, 2022-01-18T15:32:28.905Z;edebrye;assigned to @edebrye
40========== 2021-06-18T07:12:31.881Z;srouaix;closed, 2021-06-14T12:20:40.534Z;srouaix;mentioned in merge request !24, 2021-06-14T12:20:40.163Z;srouaix;created merge request !24 to address this issue, 2021-06-23T11:47:54.122Z;edebrye;mentioned in commit 422ed70dfd04e758290c4ef442cef0f7a1017134, 2021-06-23T11:47:53.617Z;edebrye;closed via merge request !25, 2021-06-23T09:07:15.387Z;edebrye;mentioned in merge request !25, 2021-06-23T09:07:15.239Z;edebrye;created merge request !25 to address this issue, 2021-06-23T12:16:03.140Z;edebrye;mentioned in commit 240cdab8dca5423a65c9627d9b0f1fe3bfeda4db, 2021-06-23T12:16:02.878Z;edebrye;closed via merge request !26, 2021-06-23T12:13:09.039Z;edebrye;mentioned in merge request !26, 2021-06-23T12:13:08.686Z;edebrye;created merge request !26 to address this issue, 2021-06-23T12:22:26.316Z;edebrye;mentioned in commit 46cd3d32e8bd5998f56c354a3ae58b049b14b3b0, 2021-06-23T12:22:26.127Z;edebrye;closed via merge request !27, 2021-06-23T12:21:00.097Z;edebrye;mentioned in merge request !27, 2021-06-23T12:20:59.777Z;edebrye;created merge request !27 to address this issue, 2021-06-23T12:50:26.957Z;edebrye;mentioned in commit 4ab47252036e056365bc6b51256834d638dd714e, 2021-06-23T12:50:26.766Z;edebrye;closed via merge request !28, 2021-06-23T12:47:57.072Z;edebrye;mentioned in merge request !28, 2021-06-23T12:47:56.450Z;edebrye;created merge request !28 to address this issue, 2021-06-24T10:59:33.129Z;edebrye;mentioned in commit b5e88433dff53d5c5efc44b5a03a2c56b82ef41c, 2021-06-24T10:59:32.710Z;edebrye;closed via merge request !29, 2021-06-24T10:54:15.977Z;edebrye;mentioned in merge request !29, 2021-06-24T10:54:15.216Z;edebrye;created merge request !29 to address this issue, 2021-06-25T06:34:30.646Z;edebrye;mentioned in commit dc3e2586cd62de8688a939349b1fadd83955d4e3, 2021-06-25T06:34:30.149Z;edebrye;closed via merge request !30, 2021-06-25T06:31:31.956Z;edebrye;mentioned in merge request !30, 2021-06-25T06:31:31.754Z;edebrye;created merge request !30 to address this issue, 2021-07-05T14:35:34.474Z;edebrye;mentioned in commit 2da21fc43c382eb62145b86af0b1712845532eed, 2021-07-05T14:35:34.009Z;edebrye;closed via merge request !31, 2021-06-29T08:35:32.438Z;edebrye;mentioned in merge request !31, 2021-06-29T08:35:32.266Z;edebrye;created merge request !31 to address this issue, 2021-06-29T08:35:29.432Z;edebrye;changed title from **Add CPU requests in deployments** to **Add CPU requests in {+k8s +}deployments**, 2021-11-09T15:08:26.592Z;edebrye;mentioned in commit 6ed34689697b079ad8b164dc42f7ed9627cffa91, 2021-10-26T13:51:36.209Z;edebrye;mentioned in merge request !32, 2021-10-26T13:51:36.039Z;edebrye;created merge request !32 to address this issue, 2021-11-18T15:42:08.828Z;edebrye;mentioned in commit 0cd1d2e0dac5a10f892a0cbec1e1e784ae88b622, 2021-11-18T15:37:32.826Z;edebrye;mentioned in merge request !33, 2021-11-18T15:37:32.415Z;edebrye;created merge request !33 to address this issue, 2022-01-14T08:08:12.768Z;edebrye;mentioned in commit 6005752877c0ef710eef5a02f48fb43440ba8c23, 2022-01-11T13:05:53.166Z;edebrye;mentioned in merge request !34, 2022-01-11T13:05:52.490Z;edebrye;created merge request !34 to address this issue, 2022-01-11T13:05:47.668Z;edebrye;assigned to @edebrye, 2022-01-18T15:18:34.785Z;edebrye;mentioned in commit 9693c4d764021034f120591c84b0008146492510, 2022-01-18T09:55:40.642Z;edebrye;changed the description, 2022-01-18T09:54:45.424Z;edebrye;marked this issue as related to atlas/atlas-admin#301, 2022-01-17T08:27:23.159Z;edebrye;mentioned in merge request !35, 2022-01-17T08:27:22.469Z;edebrye;created merge request !35 to address this issue, 2022-01-17T08:27:13.530Z;edebrye;assigned to @edebrye, 2022-01-17T14:22:33.970Z;edebrye;mentioned in commit b2cc69132cd7c151ef8a9b5c8e7f8eb88141176e, 2022-01-17T14:20:32.017Z;edebrye;mentioned in merge request !37, 2022-01-17T14:20:31.017Z;edebrye;created merge request !37 to address this issue, 2022-01-17T13:20:48.979Z;edebrye;mentioned in commit e3a77b76939d9937defac9c64ffa370c4a1edfe7, 2022-01-17T13:15:30.703Z;edebrye;mentioned in merge request !36, 2022-01-17T13:15:29.944Z;edebrye;created merge request !36 to address this issue, 2022-01-17T13:15:26.645Z;edebrye;assigned to @edebrye, 2022-01-18T16:59:18.387Z;edebrye;mentioned in commit 944fbbb26b400dd486dc83b657e0962a30af2d7d, 2022-01-18T15:32:34.122Z;edebrye;mentioned in merge request !38, 2022-01-18T15:32:33.402Z;edebrye;created merge request !38 to address this issue, 2022-01-18T15:32:28.905Z;edebrye;assigned to @edebrye, 2022-01-25T08:58:40.812Z;edebrye;mentioned in commit 3663efd89da061b0aac476f6481d860bd9d085e9, 2022-01-24T15:28:33.454Z;edebrye;mentioned in merge request !39, 2022-01-24T15:28:32.504Z;edebrye;created merge request !39 to address this issue, 2022-01-24T15:28:23.202Z;edebrye;marked this issue as related to atlas/atlas-product#2513, 2022-01-24T15:27:55.331Z;edebrye;assigned to @edebrye
41========== 2021-06-18T07:12:31.881Z;srouaix;closed, 2021-06-14T12:20:40.534Z;srouaix;mentioned in merge request !24, 2021-06-14T12:20:40.163Z;srouaix;created merge request !24 to address this issue, 2021-06-23T11:47:54.122Z;edebrye;mentioned in commit 422ed70dfd04e758290c4ef442cef0f7a1017134, 2021-06-23T11:47:53.617Z;edebrye;closed via merge request !25, 2021-06-23T09:07:15.387Z;edebrye;mentioned in merge request !25, 2021-06-23T09:07:15.239Z;edebrye;created merge request !25 to address this issue, 2021-06-23T12:16:03.140Z;edebrye;mentioned in commit 240cdab8dca5423a65c9627d9b0f1fe3bfeda4db, 2021-06-23T12:16:02.878Z;edebrye;closed via merge request !26, 2021-06-23T12:13:09.039Z;edebrye;mentioned in merge request !26, 2021-06-23T12:13:08.686Z;edebrye;created merge request !26 to address this issue, 2021-06-23T12:22:26.316Z;edebrye;mentioned in commit 46cd3d32e8bd5998f56c354a3ae58b049b14b3b0, 2021-06-23T12:22:26.127Z;edebrye;closed via merge request !27, 2021-06-23T12:21:00.097Z;edebrye;mentioned in merge request !27, 2021-06-23T12:20:59.777Z;edebrye;created merge request !27 to address this issue, 2021-06-23T12:50:26.957Z;edebrye;mentioned in commit 4ab47252036e056365bc6b51256834d638dd714e, 2021-06-23T12:50:26.766Z;edebrye;closed via merge request !28, 2021-06-23T12:47:57.072Z;edebrye;mentioned in merge request !28, 2021-06-23T12:47:56.450Z;edebrye;created merge request !28 to address this issue, 2021-06-24T10:59:33.129Z;edebrye;mentioned in commit b5e88433dff53d5c5efc44b5a03a2c56b82ef41c, 2021-06-24T10:59:32.710Z;edebrye;closed via merge request !29, 2021-06-24T10:54:15.977Z;edebrye;mentioned in merge request !29, 2021-06-24T10:54:15.216Z;edebrye;created merge request !29 to address this issue, 2021-06-25T06:34:30.646Z;edebrye;mentioned in commit dc3e2586cd62de8688a939349b1fadd83955d4e3, 2021-06-25T06:34:30.149Z;edebrye;closed via merge request !30, 2021-06-25T06:31:31.956Z;edebrye;mentioned in merge request !30, 2021-06-25T06:31:31.754Z;edebrye;created merge request !30 to address this issue, 2021-07-05T14:35:34.474Z;edebrye;mentioned in commit 2da21fc43c382eb62145b86af0b1712845532eed, 2021-07-05T14:35:34.009Z;edebrye;closed via merge request !31, 2021-06-29T08:35:32.438Z;edebrye;mentioned in merge request !31, 2021-06-29T08:35:32.266Z;edebrye;created merge request !31 to address this issue, 2021-06-29T08:35:29.432Z;edebrye;changed title from **Add CPU requests in deployments** to **Add CPU requests in {+k8s +}deployments**, 2021-11-09T15:08:26.592Z;edebrye;mentioned in commit 6ed34689697b079ad8b164dc42f7ed9627cffa91, 2021-10-26T13:51:36.209Z;edebrye;mentioned in merge request !32, 2021-10-26T13:51:36.039Z;edebrye;created merge request !32 to address this issue, 2021-11-18T15:42:08.828Z;edebrye;mentioned in commit 0cd1d2e0dac5a10f892a0cbec1e1e784ae88b622, 2021-11-18T15:37:32.826Z;edebrye;mentioned in merge request !33, 2021-11-18T15:37:32.415Z;edebrye;created merge request !33 to address this issue, 2022-01-14T08:08:12.768Z;edebrye;mentioned in commit 6005752877c0ef710eef5a02f48fb43440ba8c23, 2022-01-11T13:05:53.166Z;edebrye;mentioned in merge request !34, 2022-01-11T13:05:52.490Z;edebrye;created merge request !34 to address this issue, 2022-01-11T13:05:47.668Z;edebrye;assigned to @edebrye, 2022-01-18T15:18:34.785Z;edebrye;mentioned in commit 9693c4d764021034f120591c84b0008146492510, 2022-01-18T09:55:40.642Z;edebrye;changed the description, 2022-01-18T09:54:45.424Z;edebrye;marked this issue as related to atlas/atlas-admin#301, 2022-01-17T08:27:23.159Z;edebrye;mentioned in merge request !35, 2022-01-17T08:27:22.469Z;edebrye;created merge request !35 to address this issue, 2022-01-17T08:27:13.530Z;edebrye;assigned to @edebrye, 2022-01-17T14:22:33.970Z;edebrye;mentioned in commit b2cc69132cd7c151ef8a9b5c8e7f8eb88141176e, 2022-01-17T14:20:32.017Z;edebrye;mentioned in merge request !37, 2022-01-17T14:20:31.017Z;edebrye;created merge request !37 to address this issue, 2022-01-17T13:20:48.979Z;edebrye;mentioned in commit e3a77b76939d9937defac9c64ffa370c4a1edfe7, 2022-01-17T13:15:30.703Z;edebrye;mentioned in merge request !36, 2022-01-17T13:15:29.944Z;edebrye;created merge request !36 to address this issue, 2022-01-17T13:15:26.645Z;edebrye;assigned to @edebrye, 2022-01-18T16:59:18.387Z;edebrye;mentioned in commit 944fbbb26b400dd486dc83b657e0962a30af2d7d, 2022-01-18T15:32:34.122Z;edebrye;mentioned in merge request !38, 2022-01-18T15:32:33.402Z;edebrye;created merge request !38 to address this issue, 2022-01-18T15:32:28.905Z;edebrye;assigned to @edebrye, 2022-01-25T08:58:40.812Z;edebrye;mentioned in commit 3663efd89da061b0aac476f6481d860bd9d085e9, 2022-01-24T15:28:33.454Z;edebrye;mentioned in merge request !39, 2022-01-24T15:28:32.504Z;edebrye;created merge request !39 to address this issue, 2022-01-24T15:28:23.202Z;edebrye;marked this issue as related to atlas/atlas-product#2513, 2022-01-24T15:27:55.331Z;edebrye;assigned to @edebrye, 2022-04-26T14:14:42.070Z;edebrye;mentioned in commit 18fa9454346faeb0ec76c0acde6606080ce02ce9, 2022-04-26T14:11:29.252Z;edebrye;mentioned in merge request !42, 2022-04-26T14:11:28.072Z;edebrye;created merge request !42 to address this issue, 2022-04-26T13:43:51.094Z;edebrye;mentioned in commit 485c32895571974e5006c0b0d6ce24a1bfcea955, 2022-04-26T13:32:54.203Z;edebrye;mentioned in merge request !41, 2022-04-26T13:32:53.356Z;edebrye;created merge request !41 to address this issue, 2022-04-26T13:17:31.722Z;edebrye;mentioned in commit 40f6642dd6dc611cb75a1a6c2c209798a743b805, 2022-04-26T12:26:02.797Z;drenouf;mentioned in merge request !40, 2022-04-26T12:26:01.899Z;drenouf;created merge request !40 to address this issue
42========== 2021-06-18T07:12:31.881Z;srouaix;closed, 2021-06-14T12:20:40.534Z;srouaix;mentioned in merge request !24, 2021-06-14T12:20:40.163Z;srouaix;created merge request !24 to address this issue, 2021-06-23T11:47:54.122Z;edebrye;mentioned in commit 422ed70dfd04e758290c4ef442cef0f7a1017134, 2021-06-23T11:47:53.617Z;edebrye;closed via merge request !25, 2021-06-23T09:07:15.387Z;edebrye;mentioned in merge request !25, 2021-06-23T09:07:15.239Z;edebrye;created merge request !25 to address this issue, 2021-06-23T12:16:03.140Z;edebrye;mentioned in commit 240cdab8dca5423a65c9627d9b0f1fe3bfeda4db, 2021-06-23T12:16:02.878Z;edebrye;closed via merge request !26, 2021-06-23T12:13:09.039Z;edebrye;mentioned in merge request !26, 2021-06-23T12:13:08.686Z;edebrye;created merge request !26 to address this issue, 2021-06-23T12:22:26.316Z;edebrye;mentioned in commit 46cd3d32e8bd5998f56c354a3ae58b049b14b3b0, 2021-06-23T12:22:26.127Z;edebrye;closed via merge request !27, 2021-06-23T12:21:00.097Z;edebrye;mentioned in merge request !27, 2021-06-23T12:20:59.777Z;edebrye;created merge request !27 to address this issue, 2021-06-23T12:50:26.957Z;edebrye;mentioned in commit 4ab47252036e056365bc6b51256834d638dd714e, 2021-06-23T12:50:26.766Z;edebrye;closed via merge request !28, 2021-06-23T12:47:57.072Z;edebrye;mentioned in merge request !28, 2021-06-23T12:47:56.450Z;edebrye;created merge request !28 to address this issue, 2021-06-24T10:59:33.129Z;edebrye;mentioned in commit b5e88433dff53d5c5efc44b5a03a2c56b82ef41c, 2021-06-24T10:59:32.710Z;edebrye;closed via merge request !29, 2021-06-24T10:54:15.977Z;edebrye;mentioned in merge request !29, 2021-06-24T10:54:15.216Z;edebrye;created merge request !29 to address this issue, 2021-06-25T06:34:30.646Z;edebrye;mentioned in commit dc3e2586cd62de8688a939349b1fadd83955d4e3, 2021-06-25T06:34:30.149Z;edebrye;closed via merge request !30, 2021-06-25T06:31:31.956Z;edebrye;mentioned in merge request !30, 2021-06-25T06:31:31.754Z;edebrye;created merge request !30 to address this issue, 2021-07-05T14:35:34.474Z;edebrye;mentioned in commit 2da21fc43c382eb62145b86af0b1712845532eed, 2021-07-05T14:35:34.009Z;edebrye;closed via merge request !31, 2021-06-29T08:35:32.438Z;edebrye;mentioned in merge request !31, 2021-06-29T08:35:32.266Z;edebrye;created merge request !31 to address this issue, 2021-06-29T08:35:29.432Z;edebrye;changed title from **Add CPU requests in deployments** to **Add CPU requests in {+k8s +}deployments**, 2021-11-09T15:08:26.592Z;edebrye;mentioned in commit 6ed34689697b079ad8b164dc42f7ed9627cffa91, 2021-10-26T13:51:36.209Z;edebrye;mentioned in merge request !32, 2021-10-26T13:51:36.039Z;edebrye;created merge request !32 to address this issue, 2021-11-18T15:42:08.828Z;edebrye;mentioned in commit 0cd1d2e0dac5a10f892a0cbec1e1e784ae88b622, 2021-11-18T15:37:32.826Z;edebrye;mentioned in merge request !33, 2021-11-18T15:37:32.415Z;edebrye;created merge request !33 to address this issue, 2022-01-14T08:08:12.768Z;edebrye;mentioned in commit 6005752877c0ef710eef5a02f48fb43440ba8c23, 2022-01-11T13:05:53.166Z;edebrye;mentioned in merge request !34, 2022-01-11T13:05:52.490Z;edebrye;created merge request !34 to address this issue, 2022-01-11T13:05:47.668Z;edebrye;assigned to @edebrye, 2022-01-18T15:18:34.785Z;edebrye;mentioned in commit 9693c4d764021034f120591c84b0008146492510, 2022-01-18T09:55:40.642Z;edebrye;changed the description, 2022-01-18T09:54:45.424Z;edebrye;marked this issue as related to atlas/atlas-admin#301, 2022-01-17T08:27:23.159Z;edebrye;mentioned in merge request !35, 2022-01-17T08:27:22.469Z;edebrye;created merge request !35 to address this issue, 2022-01-17T08:27:13.530Z;edebrye;assigned to @edebrye, 2022-01-17T14:22:33.970Z;edebrye;mentioned in commit b2cc69132cd7c151ef8a9b5c8e7f8eb88141176e, 2022-01-17T14:20:32.017Z;edebrye;mentioned in merge request !37, 2022-01-17T14:20:31.017Z;edebrye;created merge request !37 to address this issue, 2022-01-17T13:20:48.979Z;edebrye;mentioned in commit e3a77b76939d9937defac9c64ffa370c4a1edfe7, 2022-01-17T13:15:30.703Z;edebrye;mentioned in merge request !36, 2022-01-17T13:15:29.944Z;edebrye;created merge request !36 to address this issue, 2022-01-17T13:15:26.645Z;edebrye;assigned to @edebrye, 2022-01-18T16:59:18.387Z;edebrye;mentioned in commit 944fbbb26b400dd486dc83b657e0962a30af2d7d, 2022-01-18T15:32:34.122Z;edebrye;mentioned in merge request !38, 2022-01-18T15:32:33.402Z;edebrye;created merge request !38 to address this issue, 2022-01-18T15:32:28.905Z;edebrye;assigned to @edebrye, 2022-01-25T08:58:40.812Z;edebrye;mentioned in commit 3663efd89da061b0aac476f6481d860bd9d085e9, 2022-01-24T15:28:33.454Z;edebrye;mentioned in merge request !39, 2022-01-24T15:28:32.504Z;edebrye;created merge request !39 to address this issue, 2022-01-24T15:28:23.202Z;edebrye;marked this issue as related to atlas/atlas-product#2513, 2022-01-24T15:27:55.331Z;edebrye;assigned to @edebrye, 2022-04-26T14:14:42.070Z;edebrye;mentioned in commit 18fa9454346faeb0ec76c0acde6606080ce02ce9, 2022-04-26T14:11:29.252Z;edebrye;mentioned in merge request !42, 2022-04-26T14:11:28.072Z;edebrye;created merge request !42 to address this issue, 2022-04-26T13:43:51.094Z;edebrye;mentioned in commit 485c32895571974e5006c0b0d6ce24a1bfcea955, 2022-04-26T13:32:54.203Z;edebrye;mentioned in merge request !41, 2022-04-26T13:32:53.356Z;edebrye;created merge request !41 to address this issue, 2022-04-26T13:17:31.722Z;edebrye;mentioned in commit 40f6642dd6dc611cb75a1a6c2c209798a743b805, 2022-04-26T12:26:02.797Z;drenouf;mentioned in merge request !40, 2022-04-26T12:26:01.899Z;drenouf;created merge request !40 to address this issue, 2022-06-15T14:30:26.684Z;drenouf;mentioned in commit 2ea51c91fd85c0cbc1c28e7e4fbe4ce0a2d8ccd6, 2022-06-15T08:48:31.255Z;drenouf;mentioned in merge request !43, 2022-06-15T08:48:24.476Z;drenouf;created branch [`42-add-pods-annotations`](/atlas/ops/ansible-common-roles/-/compare/master...42-add-pods-annotations) to address this issue, 2022-06-15T08:48:19.384Z;drenouf;assigned to @drenouf
43========== 2021-06-18T07:12:31.881Z;srouaix;closed, 2021-06-14T12:20:40.534Z;srouaix;mentioned in merge request !24, 2021-06-14T12:20:40.163Z;srouaix;created merge request !24 to address this issue, 2021-06-23T11:47:54.122Z;edebrye;mentioned in commit 422ed70dfd04e758290c4ef442cef0f7a1017134, 2021-06-23T11:47:53.617Z;edebrye;closed via merge request !25, 2021-06-23T09:07:15.387Z;edebrye;mentioned in merge request !25, 2021-06-23T09:07:15.239Z;edebrye;created merge request !25 to address this issue, 2021-06-23T12:16:03.140Z;edebrye;mentioned in commit 240cdab8dca5423a65c9627d9b0f1fe3bfeda4db, 2021-06-23T12:16:02.878Z;edebrye;closed via merge request !26, 2021-06-23T12:13:09.039Z;edebrye;mentioned in merge request !26, 2021-06-23T12:13:08.686Z;edebrye;created merge request !26 to address this issue, 2021-06-23T12:22:26.316Z;edebrye;mentioned in commit 46cd3d32e8bd5998f56c354a3ae58b049b14b3b0, 2021-06-23T12:22:26.127Z;edebrye;closed via merge request !27, 2021-06-23T12:21:00.097Z;edebrye;mentioned in merge request !27, 2021-06-23T12:20:59.777Z;edebrye;created merge request !27 to address this issue, 2021-06-23T12:50:26.957Z;edebrye;mentioned in commit 4ab47252036e056365bc6b51256834d638dd714e, 2021-06-23T12:50:26.766Z;edebrye;closed via merge request !28, 2021-06-23T12:47:57.072Z;edebrye;mentioned in merge request !28, 2021-06-23T12:47:56.450Z;edebrye;created merge request !28 to address this issue, 2021-06-24T10:59:33.129Z;edebrye;mentioned in commit b5e88433dff53d5c5efc44b5a03a2c56b82ef41c, 2021-06-24T10:59:32.710Z;edebrye;closed via merge request !29, 2021-06-24T10:54:15.977Z;edebrye;mentioned in merge request !29, 2021-06-24T10:54:15.216Z;edebrye;created merge request !29 to address this issue, 2021-06-25T06:34:30.646Z;edebrye;mentioned in commit dc3e2586cd62de8688a939349b1fadd83955d4e3, 2021-06-25T06:34:30.149Z;edebrye;closed via merge request !30, 2021-06-25T06:31:31.956Z;edebrye;mentioned in merge request !30, 2021-06-25T06:31:31.754Z;edebrye;created merge request !30 to address this issue, 2021-07-05T14:35:34.474Z;edebrye;mentioned in commit 2da21fc43c382eb62145b86af0b1712845532eed, 2021-07-05T14:35:34.009Z;edebrye;closed via merge request !31, 2021-06-29T08:35:32.438Z;edebrye;mentioned in merge request !31, 2021-06-29T08:35:32.266Z;edebrye;created merge request !31 to address this issue, 2021-06-29T08:35:29.432Z;edebrye;changed title from **Add CPU requests in deployments** to **Add CPU requests in {+k8s +}deployments**, 2021-11-09T15:08:26.592Z;edebrye;mentioned in commit 6ed34689697b079ad8b164dc42f7ed9627cffa91, 2021-10-26T13:51:36.209Z;edebrye;mentioned in merge request !32, 2021-10-26T13:51:36.039Z;edebrye;created merge request !32 to address this issue, 2021-11-18T15:42:08.828Z;edebrye;mentioned in commit 0cd1d2e0dac5a10f892a0cbec1e1e784ae88b622, 2021-11-18T15:37:32.826Z;edebrye;mentioned in merge request !33, 2021-11-18T15:37:32.415Z;edebrye;created merge request !33 to address this issue, 2022-01-14T08:08:12.768Z;edebrye;mentioned in commit 6005752877c0ef710eef5a02f48fb43440ba8c23, 2022-01-11T13:05:53.166Z;edebrye;mentioned in merge request !34, 2022-01-11T13:05:52.490Z;edebrye;created merge request !34 to address this issue, 2022-01-11T13:05:47.668Z;edebrye;assigned to @edebrye, 2022-01-18T15:18:34.785Z;edebrye;mentioned in commit 9693c4d764021034f120591c84b0008146492510, 2022-01-18T09:55:40.642Z;edebrye;changed the description, 2022-01-18T09:54:45.424Z;edebrye;marked this issue as related to atlas/atlas-admin#301, 2022-01-17T08:27:23.159Z;edebrye;mentioned in merge request !35, 2022-01-17T08:27:22.469Z;edebrye;created merge request !35 to address this issue, 2022-01-17T08:27:13.530Z;edebrye;assigned to @edebrye, 2022-01-17T14:22:33.970Z;edebrye;mentioned in commit b2cc69132cd7c151ef8a9b5c8e7f8eb88141176e, 2022-01-17T14:20:32.017Z;edebrye;mentioned in merge request !37, 2022-01-17T14:20:31.017Z;edebrye;created merge request !37 to address this issue, 2022-01-17T13:20:48.979Z;edebrye;mentioned in commit e3a77b76939d9937defac9c64ffa370c4a1edfe7, 2022-01-17T13:15:30.703Z;edebrye;mentioned in merge request !36, 2022-01-17T13:15:29.944Z;edebrye;created merge request !36 to address this issue, 2022-01-17T13:15:26.645Z;edebrye;assigned to @edebrye, 2022-01-18T16:59:18.387Z;edebrye;mentioned in commit 944fbbb26b400dd486dc83b657e0962a30af2d7d, 2022-01-18T15:32:34.122Z;edebrye;mentioned in merge request !38, 2022-01-18T15:32:33.402Z;edebrye;created merge request !38 to address this issue, 2022-01-18T15:32:28.905Z;edebrye;assigned to @edebrye, 2022-01-25T08:58:40.812Z;edebrye;mentioned in commit 3663efd89da061b0aac476f6481d860bd9d085e9, 2022-01-24T15:28:33.454Z;edebrye;mentioned in merge request !39, 2022-01-24T15:28:32.504Z;edebrye;created merge request !39 to address this issue, 2022-01-24T15:28:23.202Z;edebrye;marked this issue as related to atlas/atlas-product#2513, 2022-01-24T15:27:55.331Z;edebrye;assigned to @edebrye, 2022-04-26T14:14:42.070Z;edebrye;mentioned in commit 18fa9454346faeb0ec76c0acde6606080ce02ce9, 2022-04-26T14:11:29.252Z;edebrye;mentioned in merge request !42, 2022-04-26T14:11:28.072Z;edebrye;created merge request !42 to address this issue, 2022-04-26T13:43:51.094Z;edebrye;mentioned in commit 485c32895571974e5006c0b0d6ce24a1bfcea955, 2022-04-26T13:32:54.203Z;edebrye;mentioned in merge request !41, 2022-04-26T13:32:53.356Z;edebrye;created merge request !41 to address this issue, 2022-04-26T13:17:31.722Z;edebrye;mentioned in commit 40f6642dd6dc611cb75a1a6c2c209798a743b805, 2022-04-26T12:26:02.797Z;drenouf;mentioned in merge request !40, 2022-04-26T12:26:01.899Z;drenouf;created merge request !40 to address this issue, 2022-06-15T14:30:26.684Z;drenouf;mentioned in commit 2ea51c91fd85c0cbc1c28e7e4fbe4ce0a2d8ccd6, 2022-06-15T08:48:31.255Z;drenouf;mentioned in merge request !43, 2022-06-15T08:48:24.476Z;drenouf;created branch [`42-add-pods-annotations`](/atlas/ops/ansible-common-roles/-/compare/master...42-add-pods-annotations) to address this issue, 2022-06-15T08:48:19.384Z;drenouf;assigned to @drenouf, 2022-07-07T09:17:08.886Z;drenouf;mentioned in commit f0c8a8378f98198c7bc0ffe16241be68913325ad, 2022-07-07T09:00:11.511Z;drenouf;mentioned in merge request !44, 2022-07-07T09:00:03.612Z;drenouf;created branch [`43-update-busybox-path`](/atlas/ops/ansible-common-roles/-/compare/master...43-update-busybox-path) to address this issue
44========== 2021-06-18T07:12:31.881Z;srouaix;closed, 2021-06-14T12:20:40.534Z;srouaix;mentioned in merge request !24, 2021-06-14T12:20:40.163Z;srouaix;created merge request !24 to address this issue, 2021-06-23T11:47:54.122Z;edebrye;mentioned in commit 422ed70dfd04e758290c4ef442cef0f7a1017134, 2021-06-23T11:47:53.617Z;edebrye;closed via merge request !25, 2021-06-23T09:07:15.387Z;edebrye;mentioned in merge request !25, 2021-06-23T09:07:15.239Z;edebrye;created merge request !25 to address this issue, 2021-06-23T12:16:03.140Z;edebrye;mentioned in commit 240cdab8dca5423a65c9627d9b0f1fe3bfeda4db, 2021-06-23T12:16:02.878Z;edebrye;closed via merge request !26, 2021-06-23T12:13:09.039Z;edebrye;mentioned in merge request !26, 2021-06-23T12:13:08.686Z;edebrye;created merge request !26 to address this issue, 2021-06-23T12:22:26.316Z;edebrye;mentioned in commit 46cd3d32e8bd5998f56c354a3ae58b049b14b3b0, 2021-06-23T12:22:26.127Z;edebrye;closed via merge request !27, 2021-06-23T12:21:00.097Z;edebrye;mentioned in merge request !27, 2021-06-23T12:20:59.777Z;edebrye;created merge request !27 to address this issue, 2021-06-23T12:50:26.957Z;edebrye;mentioned in commit 4ab47252036e056365bc6b51256834d638dd714e, 2021-06-23T12:50:26.766Z;edebrye;closed via merge request !28, 2021-06-23T12:47:57.072Z;edebrye;mentioned in merge request !28, 2021-06-23T12:47:56.450Z;edebrye;created merge request !28 to address this issue, 2021-06-24T10:59:33.129Z;edebrye;mentioned in commit b5e88433dff53d5c5efc44b5a03a2c56b82ef41c, 2021-06-24T10:59:32.710Z;edebrye;closed via merge request !29, 2021-06-24T10:54:15.977Z;edebrye;mentioned in merge request !29, 2021-06-24T10:54:15.216Z;edebrye;created merge request !29 to address this issue, 2021-06-25T06:34:30.646Z;edebrye;mentioned in commit dc3e2586cd62de8688a939349b1fadd83955d4e3, 2021-06-25T06:34:30.149Z;edebrye;closed via merge request !30, 2021-06-25T06:31:31.956Z;edebrye;mentioned in merge request !30, 2021-06-25T06:31:31.754Z;edebrye;created merge request !30 to address this issue, 2021-07-05T14:35:34.474Z;edebrye;mentioned in commit 2da21fc43c382eb62145b86af0b1712845532eed, 2021-07-05T14:35:34.009Z;edebrye;closed via merge request !31, 2021-06-29T08:35:32.438Z;edebrye;mentioned in merge request !31, 2021-06-29T08:35:32.266Z;edebrye;created merge request !31 to address this issue, 2021-06-29T08:35:29.432Z;edebrye;changed title from **Add CPU requests in deployments** to **Add CPU requests in {+k8s +}deployments**, 2021-11-09T15:08:26.592Z;edebrye;mentioned in commit 6ed34689697b079ad8b164dc42f7ed9627cffa91, 2021-10-26T13:51:36.209Z;edebrye;mentioned in merge request !32, 2021-10-26T13:51:36.039Z;edebrye;created merge request !32 to address this issue, 2021-11-18T15:42:08.828Z;edebrye;mentioned in commit 0cd1d2e0dac5a10f892a0cbec1e1e784ae88b622, 2021-11-18T15:37:32.826Z;edebrye;mentioned in merge request !33, 2021-11-18T15:37:32.415Z;edebrye;created merge request !33 to address this issue, 2022-01-14T08:08:12.768Z;edebrye;mentioned in commit 6005752877c0ef710eef5a02f48fb43440ba8c23, 2022-01-11T13:05:53.166Z;edebrye;mentioned in merge request !34, 2022-01-11T13:05:52.490Z;edebrye;created merge request !34 to address this issue, 2022-01-11T13:05:47.668Z;edebrye;assigned to @edebrye, 2022-01-18T15:18:34.785Z;edebrye;mentioned in commit 9693c4d764021034f120591c84b0008146492510, 2022-01-18T09:55:40.642Z;edebrye;changed the description, 2022-01-18T09:54:45.424Z;edebrye;marked this issue as related to atlas/atlas-admin#301, 2022-01-17T08:27:23.159Z;edebrye;mentioned in merge request !35, 2022-01-17T08:27:22.469Z;edebrye;created merge request !35 to address this issue, 2022-01-17T08:27:13.530Z;edebrye;assigned to @edebrye, 2022-01-17T14:22:33.970Z;edebrye;mentioned in commit b2cc69132cd7c151ef8a9b5c8e7f8eb88141176e, 2022-01-17T14:20:32.017Z;edebrye;mentioned in merge request !37, 2022-01-17T14:20:31.017Z;edebrye;created merge request !37 to address this issue, 2022-01-17T13:20:48.979Z;edebrye;mentioned in commit e3a77b76939d9937defac9c64ffa370c4a1edfe7, 2022-01-17T13:15:30.703Z;edebrye;mentioned in merge request !36, 2022-01-17T13:15:29.944Z;edebrye;created merge request !36 to address this issue, 2022-01-17T13:15:26.645Z;edebrye;assigned to @edebrye, 2022-01-18T16:59:18.387Z;edebrye;mentioned in commit 944fbbb26b400dd486dc83b657e0962a30af2d7d, 2022-01-18T15:32:34.122Z;edebrye;mentioned in merge request !38, 2022-01-18T15:32:33.402Z;edebrye;created merge request !38 to address this issue, 2022-01-18T15:32:28.905Z;edebrye;assigned to @edebrye, 2022-01-25T08:58:40.812Z;edebrye;mentioned in commit 3663efd89da061b0aac476f6481d860bd9d085e9, 2022-01-24T15:28:33.454Z;edebrye;mentioned in merge request !39, 2022-01-24T15:28:32.504Z;edebrye;created merge request !39 to address this issue, 2022-01-24T15:28:23.202Z;edebrye;marked this issue as related to atlas/atlas-product#2513, 2022-01-24T15:27:55.331Z;edebrye;assigned to @edebrye, 2022-04-26T14:14:42.070Z;edebrye;mentioned in commit 18fa9454346faeb0ec76c0acde6606080ce02ce9, 2022-04-26T14:11:29.252Z;edebrye;mentioned in merge request !42, 2022-04-26T14:11:28.072Z;edebrye;created merge request !42 to address this issue, 2022-04-26T13:43:51.094Z;edebrye;mentioned in commit 485c32895571974e5006c0b0d6ce24a1bfcea955, 2022-04-26T13:32:54.203Z;edebrye;mentioned in merge request !41, 2022-04-26T13:32:53.356Z;edebrye;created merge request !41 to address this issue, 2022-04-26T13:17:31.722Z;edebrye;mentioned in commit 40f6642dd6dc611cb75a1a6c2c209798a743b805, 2022-04-26T12:26:02.797Z;drenouf;mentioned in merge request !40, 2022-04-26T12:26:01.899Z;drenouf;created merge request !40 to address this issue, 2022-06-15T14:30:26.684Z;drenouf;mentioned in commit 2ea51c91fd85c0cbc1c28e7e4fbe4ce0a2d8ccd6, 2022-06-15T08:48:31.255Z;drenouf;mentioned in merge request !43, 2022-06-15T08:48:24.476Z;drenouf;created branch [`42-add-pods-annotations`](/atlas/ops/ansible-common-roles/-/compare/master...42-add-pods-annotations) to address this issue, 2022-06-15T08:48:19.384Z;drenouf;assigned to @drenouf, 2022-07-07T09:17:08.886Z;drenouf;mentioned in commit f0c8a8378f98198c7bc0ffe16241be68913325ad, 2022-07-07T09:00:11.511Z;drenouf;mentioned in merge request !44, 2022-07-07T09:00:03.612Z;drenouf;created branch [`43-update-busybox-path`](/atlas/ops/ansible-common-roles/-/compare/master...43-update-busybox-path) to address this issue, 2023-07-25T20:08:42.654Z;vthevenon;mentioned in commit 1f4633bf002fcebf32feccac2dd3beedc7411055, 2023-07-25T20:08:28.375Z;vthevenon;mentioned in merge request !49, 2023-07-25T18:53:16.912Z;vthevenon;mentioned in commit 3df548d48ef11a533d4e790d27e91be57e87779e, 2023-07-25T18:52:43.208Z;vthevenon;mentioned in merge request !48, 2023-07-25T18:49:00.502Z;vthevenon;mentioned in commit dc1d7fc950e5f470aafdb9c64a25a72960fed3f3, 2023-07-25T18:48:49.813Z;vthevenon;mentioned in merge request !47, 2023-07-25T07:53:20.538Z;vthevenon;mentioned in commit 54b7063c70113df73a69b40c3041e494973d3236, 2023-07-25T07:49:22.701Z;vthevenon;mentioned in merge request !46, 2023-07-25T06:31:17.841Z;vthevenon;mentioned in commit 51785e364072dd9ef992f30c4b2e389db91ea250, 2023-07-20T15:05:23.120Z;vthevenon;mentioned in merge request !45, 2023-07-20T15:05:14.433Z;vthevenon;created branch [`44-modify-deployment-template-to-run-cloudwatch-agent-as-sidecar`](/atlas/ops/ansible-common-roles/-/compare/master...44-modify-deployment-template-to-run-cloudwatch-agent-as-sidecar) to address this issue, 2023-07-20T15:03:02.521Z;vthevenon;assigned to @vthevenon