Issue ID,Upload Paths 1,Upload Paths 2,Upload Paths 3,Upload Paths 4,Upload Paths 5,Upload Paths 6,Upload Paths 7,Upload Paths 8,Upload Paths 9,Upload Paths 10
600,,,,,,,,,,
599,,,,,,,,,,
598,,,,,,,,,,
597,,,,,,,,,,
596,,,,,,,,,,
595,,,,,,,,,,
594,,,,,,,,,,
593,,,,,,,,,,
592,,,,,,,,,,
591,,,,,,,,,,
590,,,,,,,,,,
589,file://csvimport//uploads/cb661e6d61e78d7225de741762a94d7e/image.png,,,,,,,,,
588,,,,,,,,,,
587,,,,,,,,,,
586,,,,,,,,,,
585,,,,,,,,,,
584,,,,,,,,,,
583,file://csvimport//uploads/e54e8148a80db38e5c6a522aa672f44c/image.png,file://csvimport//uploads/b9b19661d37cb07d263ded1f9a7bd8ea/image.png,,,,,,,,
582,,,,,,,,,,
581,,,,,,,,,,
580,file://csvimport//uploads/be1845139758aeac471b12034361b89a/image.png,file://csvimport//uploads/08b3608d81426aaae1dbba397422b8ca/image.png,,,,,,,,
579,file://csvimport//uploads/b4a1b893c6f3e7941ac6852327224e00/image.png,,,,,,,,,
578,file://csvimport//uploads/d69878266cc3ec306111b8dff1d288c4/image.png,,,,,,,,,
577,file://csvimport//uploads/e578eb0f0ff7ddf3da18ef0746880884/image.png,,,,,,,,,
576,file://csvimport//uploads/bd327f13cae25e145f3a75d998869a17/image.png,file://csvimport//uploads/a7a9fede63448d58ac88f2d991496578/image.png,file://csvimport//uploads/580d69e853b069345a7adfa88be2adbb/image.png,,,,,,,
575,file://csvimport//uploads/7930dbb43af654710cb7f0fd06b510fa/image.png,,,,,,,,,
574,,,,,,,,,,
573,,,,,,,,,,
572,,,,,,,,,,
571,,,,,,,,,,
570,file://csvimport//uploads/ff76890e1b4318d5d7915172ef15fbc5/image.png,,,,,,,,,
569,,,,,,,,,,
568,file://csvimport//uploads/4ea55960f4384d916800e16762b4ba86/ELB_ticket.xlsx,,,,,,,,,
567,,,,,,,,,,
566,,,,,,,,,,
565,,,,,,,,,,
564,,,,,,,,,,
563,,,,,,,,,,
562,,,,,,,,,,
561,,,,,,,,,,
560,file://csvimport//uploads/8006c08ad22cda4eb536d021213bb8ac/image.png,,,,,,,,,
559,,,,,,,,,,
558,,,,,,,,,,
557,,,,,,,,,,
556,,,,,,,,,,
555,,,,,,,,,,
554,,,,,,,,,,
553,,,,,,,,,,
552,file://csvimport//uploads/6ffe70640fe3ab3a18c0439687401901/AwsResources.xlsx,file://csvimport//uploads/3abcae67fd5ebc0706405c94def4b5c1/AwsResources.xlsx,,,,,,,,
551,,,,,,,,,,
550,,,,,,,,,,
549,,,,,,,,,,
548,,,,,,,,,,
547,,,,,,,,,,
546,,,,,,,,,,
545,file://csvimport//uploads/33f97febb40ce846e211276cfb924d20/AWS_Inspector.docx,,,,,,,,,
544,,,,,,,,,,
543,,,,,,,,,,
542,,,,,,,,,,
541,,,,,,,,,,
540,,,,,,,,,,
539,,,,,,,,,,
538,file://csvimport//uploads/894bbdf93a59c568b3287923e97b9b3b/Sqs.xlsx,,,,,,,,,
537,file://csvimport//uploads/010e3c48f5f6358b85cfcc18401f51c2/Secrets.xlsx,,,,,,,,,
536,,,,,,,,,,
535,,,,,,,,,,
534,,,,,,,,,,
533,,,,,,,,,,
532,,,,,,,,,,
531,,,,,,,,,,
530,,,,,,,,,,
529,,,,,,,,,,
528,,,,,,,,,,
527,file://csvimport//uploads/08379e21d60bfb0f95182eb638a2b718/cloud_watch.xlsx,,,,,,,,,
526,,,,,,,,,,
525,file://csvimport//uploads/c8ba969380ba5040f84deaee9bff3805/Atlas_Backend_Monitoring.docx,file://csvimport//uploads/70e743db477bb8038717e04007222c41/AWS_Alarms.txt,,,,,,,,
524,,,,,,,,,,
523,,,,,,,,,,
522,,,,,,,,,,
521,,,,,,,,,,
520,file://csvimport//uploads/90326d941cb545e5ee67e0cc7e76d066/AWS_Inspector.docx,file://csvimport//uploads/cfed7984d78f977e6523c780692d1e4b/AWS_Inspector.docx,file://csvimport//uploads/6e0bba173bd3912ee9bde6741c59ab9f/AWS_Inspector.docx,file://csvimport//uploads/f90b834a119b2a1c02458b7022f2d992/AWS_Inspector.docx,,,,,,
519,,,,,,,,,,
518,,,,,,,,,,
517,,,,,,,,,,
516,,,,,,,,,,
515,,,,,,,,,,
514,,,,,,,,,,
513,,,,,,,,,,
512,file://csvimport//uploads/126a67b1119df455074cc064ad9c4029/image.png,,,,,,,,,
511,,,,,,,,,,
510,,,,,,,,,,
509,,,,,,,,,,
508,,,,,,,,,,
507,,,,,,,,,,
506,,,,,,,,,,
505,,,,,,,,,,
504,,,,,,,,,,
503,,,,,,,,,,
502,,,,,,,,,,
501,,,,,,,,,,
500,file://csvimport//uploads/4cc9599a45a2374d7e525a88de18c9b0/image.png,,,,,,,,,
499,file://csvimport//uploads/d0516b5fde48dd444a8d993bbb47c7d4/image.png,,,,,,,,,
498,,,,,,,,,,
497,,,,,,,,,,
496,,,,,,,,,,
495,,,,,,,,,,
494,,,,,,,,,,
493,,,,,,,,,,
492,,,,,,,,,,
491,,,,,,,,,,
490,,,,,,,,,,
489,,,,,,,,,,
488,,,,,,,,,,
487,,,,,,,,,,
486,,,,,,,,,,
485,,,,,,,,,,
484,,,,,,,,,,
483,,,,,,,,,,
482,,,,,,,,,,
481,,,,,,,,,,
480,,,,,,,,,,
479,,,,,,,,,,
478,,,,,,,,,,
477,,,,,,,,,,
476,,,,,,,,,,
475,,,,,,,,,,
474,,,,,,,,,,
473,,,,,,,,,,
472,,,,,,,,,,
471,,,,,,,,,,
470,,,,,,,,,,
469,,,,,,,,,,
468,,,,,,,,,,
467,,,,,,,,,,
466,,,,,,,,,,
465,,,,,,,,,,
464,,,,,,,,,,
463,,,,,,,,,,
462,,,,,,,,,,
461,,,,,,,,,,
460,,,,,,,,,,
459,,,,,,,,,,
458,,,,,,,,,,
457,,,,,,,,,,
456,,,,,,,,,,
455,,,,,,,,,,
453,,,,,,,,,,
452,,,,,,,,,,
451,,,,,,,,,,
450,,,,,,,,,,
449,,,,,,,,,,
448,,,,,,,,,,
447,,,,,,,,,,
446,,,,,,,,,,
445,,,,,,,,,,
444,,,,,,,,,,
443,,,,,,,,,,
442,,,,,,,,,,
441,,,,,,,,,,
440,,,,,,,,,,
439,,,,,,,,,,
438,,,,,,,,,,
437,,,,,,,,,,
436,,,,,,,,,,
435,,,,,,,,,,
434,,,,,,,,,,
433,,,,,,,,,,
432,,,,,,,,,,
431,,,,,,,,,,
430,,,,,,,,,,
429,,,,,,,,,,
428,,,,,,,,,,
427,,,,,,,,,,
426,,,,,,,,,,
425,,,,,,,,,,
424,,,,,,,,,,
423,,,,,,,,,,
422,,,,,,,,,,
420,,,,,,,,,,
419,,,,,,,,,,
418,,,,,,,,,,
417,,,,,,,,,,
416,,,,,,,,,,
415,,,,,,,,,,
414,,,,,,,,,,
413,,,,,,,,,,
412,,,,,,,,,,
411,,,,,,,,,,
410,,,,,,,,,,
409,,,,,,,,,,
408,,,,,,,,,,
407,,,,,,,,,,
406,,,,,,,,,,
405,,,,,,,,,,
404,,,,,,,,,,
403,,,,,,,,,,
402,,,,,,,,,,
401,,,,,,,,,,
400,,,,,,,,,,
399,,,,,,,,,,
398,,,,,,,,,,
397,,,,,,,,,,
395,,,,,,,,,,
394,,,,,,,,,,
393,,,,,,,,,,
392,,,,,,,,,,
391,,,,,,,,,,
390,,,,,,,,,,
389,,,,,,,,,,
388,,,,,,,,,,
387,,,,,,,,,,
386,,,,,,,,,,
385,,,,,,,,,,
384,,,,,,,,,,
383,,,,,,,,,,
382,,,,,,,,,,
381,,,,,,,,,,
380,,,,,,,,,,
379,,,,,,,,,,
378,,,,,,,,,,
377,,,,,,,,,,
376,,,,,,,,,,
375,,,,,,,,,,
374,,,,,,,,,,
373,,,,,,,,,,
372,,,,,,,,,,
371,,,,,,,,,,
370,,,,,,,,,,
369,,,,,,,,,,
368,,,,,,,,,,
367,,,,,,,,,,
366,,,,,,,,,,
365,,,,,,,,,,
364,,,,,,,,,,
363,,,,,,,,,,
362,,,,,,,,,,
361,,,,,,,,,,
360,,,,,,,,,,
359,,,,,,,,,,
358,,,,,,,,,,
357,,,,,,,,,,
356,,,,,,,,,,
355,,,,,,,,,,
354,,,,,,,,,,
353,,,,,,,,,,
352,,,,,,,,,,
351,,,,,,,,,,
350,,,,,,,,,,
349,,,,,,,,,,
348,,,,,,,,,,
347,,,,,,,,,,
346,,,,,,,,,,
345,,,,,,,,,,
344,,,,,,,,,,
343,,,,,,,,,,
342,,,,,,,,,,
341,,,,,,,,,,
340,,,,,,,,,,
339,,,,,,,,,,
338,,,,,,,,,,
337,,,,,,,,,,
336,,,,,,,,,,
335,,,,,,,,,,
334,,,,,,,,,,
333,,,,,,,,,,
332,,,,,,,,,,
331,,,,,,,,,,
330,,,,,,,,,,
329,,,,,,,,,,
328,,,,,,,,,,
327,,,,,,,,,,
326,,,,,,,,,,
325,,,,,,,,,,
324,,,,,,,,,,
323,,,,,,,,,,
322,,,,,,,,,,
321,,,,,,,,,,
320,,,,,,,,,,
319,,,,,,,,,,
318,,,,,,,,,,
317,,,,,,,,,,
316,,,,,,,,,,
315,,,,,,,,,,
314,,,,,,,,,,
313,,,,,,,,,,
312,,,,,,,,,,
311,,,,,,,,,,
310,,,,,,,,,,
309,,,,,,,,,,
308,,,,,,,,,,
307,,,,,,,,,,
306,,,,,,,,,,
305,,,,,,,,,,
304,,,,,,,,,,
303,,,,,,,,,,
302,,,,,,,,,,
301,,,,,,,,,,
300,,,,,,,,,,
299,,,,,,,,,,
298,,,,,,,,,,
297,,,,,,,,,,
296,,,,,,,,,,
295,,,,,,,,,,
294,,,,,,,,,,
293,,,,,,,,,,
292,,,,,,,,,,
291,,,,,,,,,,
290,,,,,,,,,,
289,,,,,,,,,,
288,,,,,,,,,,
287,,,,,,,,,,
286,,,,,,,,,,
285,,,,,,,,,,
284,,,,,,,,,,
283,,,,,,,,,,
282,,,,,,,,,,
281,,,,,,,,,,
280,,,,,,,,,,
279,,,,,,,,,,
278,,,,,,,,,,
277,,,,,,,,,,
276,,,,,,,,,,
275,,,,,,,,,,
274,,,,,,,,,,
273,,,,,,,,,,
272,,,,,,,,,,
271,,,,,,,,,,
270,,,,,,,,,,
269,,,,,,,,,,
268,,,,,,,,,,
267,,,,,,,,,,
266,,,,,,,,,,
265,,,,,,,,,,
264,,,,,,,,,,
263,,,,,,,,,,
262,,,,,,,,,,
261,,,,,,,,,,
260,,,,,,,,,,
259,,,,,,,,,,
258,,,,,,,,,,
257,,,,,,,,,,
256,,,,,,,,,,
255,,,,,,,,,,
254,,,,,,,,,,
253,,,,,,,,,,
252,,,,,,,,,,
251,,,,,,,,,,
250,,,,,,,,,,
249,,,,,,,,,,
248,,,,,,,,,,
247,,,,,,,,,,
246,,,,,,,,,,
245,,,,,,,,,,
244,,,,,,,,,,
243,,,,,,,,,,
242,,,,,,,,,,
241,,,,,,,,,,
240,,,,,,,,,,
239,,,,,,,,,,
238,,,,,,,,,,
237,,,,,,,,,,
236,,,,,,,,,,
235,,,,,,,,,,
234,,,,,,,,,,
233,,,,,,,,,,
232,,,,,,,,,,
231,,,,,,,,,,
230,,,,,,,,,,
229,,,,,,,,,,
228,,,,,,,,,,
227,,,,,,,,,,
226,,,,,,,,,,
225,,,,,,,,,,
224,,,,,,,,,,
223,,,,,,,,,,
222,,,,,,,,,,
221,,,,,,,,,,
220,,,,,,,,,,
219,,,,,,,,,,
218,,,,,,,,,,
217,,,,,,,,,,
216,,,,,,,,,,
215,,,,,,,,,,
214,,,,,,,,,,
213,,,,,,,,,,
212,,,,,,,,,,
211,,,,,,,,,,
210,,,,,,,,,,
209,,,,,,,,,,
208,,,,,,,,,,
207,,,,,,,,,,
206,,,,,,,,,,
205,,,,,,,,,,
204,,,,,,,,,,
203,,,,,,,,,,
202,,,,,,,,,,
201,,,,,,,,,,
200,,,,,,,,,,
199,,,,,,,,,,
198,,,,,,,,,,
197,,,,,,,,,,
196,,,,,,,,,,
195,,,,,,,,,,
194,,,,,,,,,,
193,,,,,,,,,,
192,,,,,,,,,,
191,,,,,,,,,,
190,,,,,,,,,,
189,,,,,,,,,,
188,,,,,,,,,,
187,,,,,,,,,,
186,,,,,,,,,,
185,,,,,,,,,,
184,,,,,,,,,,
183,,,,,,,,,,
182,,,,,,,,,,
181,,,,,,,,,,
180,,,,,,,,,,
179,,,,,,,,,,
178,,,,,,,,,,
177,,,,,,,,,,
176,,,,,,,,,,
175,,,,,,,,,,
174,,,,,,,,,,
173,,,,,,,,,,
172,,,,,,,,,,
171,,,,,,,,,,
170,,,,,,,,,,
169,,,,,,,,,,
168,,,,,,,,,,
167,,,,,,,,,,
166,,,,,,,,,,
165,,,,,,,,,,
164,,,,,,,,,,
163,,,,,,,,,,
162,,,,,,,,,,
161,,,,,,,,,,
160,,,,,,,,,,
159,,,,,,,,,,
158,,,,,,,,,,
157,,,,,,,,,,
156,,,,,,,,,,
155,,,,,,,,,,
154,,,,,,,,,,
153,,,,,,,,,,
152,,,,,,,,,,
151,,,,,,,,,,
150,,,,,,,,,,
149,,,,,,,,,,
148,,,,,,,,,,
147,,,,,,,,,,
146,,,,,,,,,,
145,,,,,,,,,,
144,,,,,,,,,,
143,,,,,,,,,,
142,,,,,,,,,,
141,,,,,,,,,,
140,,,,,,,,,,
139,,,,,,,,,,
138,,,,,,,,,,
137,,,,,,,,,,
136,,,,,,,,,,
135,,,,,,,,,,
134,,,,,,,,,,
133,,,,,,,,,,
132,,,,,,,,,,
131,,,,,,,,,,
130,,,,,,,,,,
129,,,,,,,,,,
128,,,,,,,,,,
127,,,,,,,,,,
126,,,,,,,,,,
125,,,,,,,,,,
124,,,,,,,,,,
123,,,,,,,,,,
122,,,,,,,,,,
121,,,,,,,,,,
120,,,,,,,,,,
119,,,,,,,,,,
118,,,,,,,,,,
117,,,,,,,,,,
116,,,,,,,,,,
115,,,,,,,,,,
114,,,,,,,,,,
113,,,,,,,,,,
112,,,,,,,,,,
111,,,,,,,,,,
110,,,,,,,,,,
109,,,,,,,,,,
108,,,,,,,,,,
107,,,,,,,,,,
106,,,,,,,,,,
105,,,,,,,,,,
104,,,,,,,,,,
103,,,,,,,,,,
102,,,,,,,,,,
101,,,,,,,,,,
100,,,,,,,,,,
99,,,,,,,,,,
98,,,,,,,,,,
97,,,,,,,,,,
96,,,,,,,,,,
95,,,,,,,,,,
94,,,,,,,,,,
93,,,,,,,,,,
92,,,,,,,,,,
91,,,,,,,,,,
90,,,,,,,,,,
89,,,,,,,,,,
88,,,,,,,,,,
87,,,,,,,,,,
86,,,,,,,,,,
85,,,,,,,,,,
84,,,,,,,,,,
83,,,,,,,,,,
82,,,,,,,,,,
80,,,,,,,,,,
79,,,,,,,,,,
78,,,,,,,,,,
77,,,,,,,,,,
75,,,,,,,,,,
74,,,,,,,,,,
73,,,,,,,,,,
72,,,,,,,,,,
71,,,,,,,,,,
70,,,,,,,,,,
69,,,,,,,,,,
68,,,,,,,,,,
67,,,,,,,,,,
66,,,,,,,,,,
65,,,,,,,,,,
64,,,,,,,,,,
63,,,,,,,,,,
62,,,,,,,,,,
61,,,,,,,,,,
60,,,,,,,,,,
59,,,,,,,,,,
58,,,,,,,,,,
57,,,,,,,,,,
56,,,,,,,,,,
55,,,,,,,,,,
54,,,,,,,,,,
53,,,,,,,,,,
51,,,,,,,,,,
50,,,,,,,,,,
48,,,,,,,,,,
47,,,,,,,,,,
46,,,,,,,,,,
45,,,,,,,,,,
44,,,,,,,,,,
43,,,,,,,,,,
42,,,,,,,,,,
41,,,,,,,,,,
40,,,,,,,,,,
39,,,,,,,,,,
38,,,,,,,,,,
37,,,,,,,,,,
36,,,,,,,,,,
35,,,,,,,,,,
34,,,,,,,,,,
33,,,,,,,,,,
32,,,,,,,,,,
31,,,,,,,,,,
30,,,,,,,,,,
29,,,,,,,,,,
28,,,,,,,,,,
27,,,,,,,,,,
26,,,,,,,,,,
25,,,,,,,,,,
24,,,,,,,,,,
23,,,,,,,,,,
22,,,,,,,,,,
21,,,,,,,,,,
20,,,,,,,,,,
19,,,,,,,,,,
18,,,,,,,,,,
17,,,,,,,,,,
16,,,,,,,,,,
15,,,,,,,,,,
14,,,,,,,,,,
13,,,,,,,,,,
12,,,,,,,,,,
11,,,,,,,,,,
10,,,,,,,,,,
9,,,,,,,,,,
8,,,,,,,,,,
7,,,,,,,,,,
6,,,,,,,,,,
5,,,,,,,,,,
4,,,,,,,,,,
3,,,,,,,,,,
2,,,,,,,,,,
1,,,,,,,,,,
