Issue ID,attachment_link1,attachment_link2,attachment_link3,attachment_link4,attachment_link5,attachment_link6,attachment_link7,attachment_link8,attachment_link9,attachment_link10
577,file://csvimport/atlasadmin/uploads/bb440bf3b7a3d868c600ff603533666e/image.png),,,,,,,,,
576,file://csvimport/atlasadmin/uploads/41d5de964a804b8da21390a7483e9319/image.png),,,,,,,,,
566,file://csvimport/atlasadmin/uploads/74443591bf7ffaf4613358163b421232/image.png),,,,,,,,,
563,file://csvimport/atlasadmin/uploads/caf6c21e1762c716573a0e02f1ad8ddb/image.png),,,,,,,,,
553,file://csvimport/atlasadmin/uploads/05fd47a3996aff02d7852bb937b9ff80/python_error.PNG),,,,,,,,,
552,file://csvimport/atlasadmin/uploads/594c82dec6930cbb1434ff4c29942411/AwsResources.xlsx).,,,,,,,,,
546,file://csvimport/atlasadmin/uploads/2dd943caff3763f08ae14abc9b85a23b/ALARM___common-k8s_eks-node_atlas-generic_i-0b262c025741b6882_cpu-utilization__in_EU__Ireland_.msg),file://csvimport/atlasadmin/uploads/d4eca4e324f9abd6706693b1019e7f94/ALARM___common-k8s_eks-node_atlas-generic_i-0dc09b050727d9260_cpu-utilization__in_EU__Ireland_.msg),file://csvimport/atlasadmin/uploads/4831c3aa218e64829bf30e427d065299/ALARM___common-k8s_eks-node_atlas-generic_i-0dc09b050727d9260_cpu-utilization__in_EU__Ireland___1_.msg),file://csvimport/atlasadmin/uploads/25a6d11340e2c96c60bf39349f65d77f/ALARM___common-k8s_eks-node_atlas-generic_i-0dc09b050727d9260_cpu-utilization__in_EU__Ireland___2_.msg),,,,,,
